{"@odata.context":"/redfish/v1/$metadata#Managers/Members/iDRAC.Embedded.1/LogServices/Members/Lclog/Entries/$entity","@odata.count":1130,"@odata.id":"/redfish/v1/Managers/iDRAC.Embedded.1/Logs/Lclog","@odata.nextLink":"/redfish/v1/Managers/iDRAC.Embedded.1/Logs/Lclog?$skip=50","@odata.type":"#LogEntry.1.0.0.LogEntryCollection","Description":"LC Logs for this manager","Members":[{"@odata.id":"/redfish/v1/Managers/iDRAC.Embedded.1/Logs/Lclog/1130","@odata.type":"#LogEntry.1.0.0.LogEntry","Created":"2017-01-12T20:39:37-06:00","Description":" Log Entry 1130","EntryType":"Oem","Id":"1130","Links":{"OriginOfCondition":{"@odata.id":"/redfish/v1/Managers/iDRAC.Embedded.1"}},"Message":"Successfully logged in using root, from 10.6.87.1 and REDFISH.","MessageArgs":["root","10.6.87.1","REDFISH"],"MessageID":"USR0030","Name":" Log Entry 1130","OEMRecordFormat":"Dell","Severity":"Ok"},{"@odata.id":"/redfish/v1/Managers/iDRAC.Embedded.1/Logs/Lclog/1129","@odata.type":"#LogEntry.1.0.0.LogEntry","Created":"2017-01-12T20:39:37-06:00","Description":" Log Entry 1129","EntryType":"Oem","Id":"1129","Message":"The previous log entry was repeated 485 times.","MessageArgs":["485"],"MessageID":"LOG007","Name":" Log Entry 1129","OEMRecordFormat":"Dell","Severity":"Ok"},{"@odata.id":"/redfish/v1/Managers/iDRAC.Embedded.1/Logs/Lclog/1128","@odata.type":"#LogEntry.1.0.0.LogEntry","Created":"2017-01-11T03:23:15-06:00","Description":" Log Entry 1128","EntryType":"Oem","Id":"1128","Links":{"OriginOfCondition":{"@odata.id":"/redfish/v1/Managers/iDRAC.Embedded.1"}},"Message":"Successfully logged in using root, from 10.6.87.1 and REDFISH.","MessageArgs":["root","10.6.87.1","REDFISH"],"MessageID":"USR0030","Name":" Log Entry 1128","OEMRecordFormat":"Dell","Severity":"Ok"},{"@odata.id":"/redfish/v1/Managers/iDRAC.Embedded.1/Logs/Lclog/1127","@odata.type":"#LogEntry.1.0.0.LogEntry","Created":"2017-01-11T03:23:15-06:00","Description":" Log Entry 1127","EntryType":"Oem","Id":"1127","Message":"The previous log entry was repeated 545 times.","MessageArgs":["545"],"MessageID":"LOG007","Name":" Log Entry 1127","OEMRecordFormat":"Dell","Severity":"Ok"},{"@odata.id":"/redfish/v1/Managers/iDRAC.Embedded.1/Logs/Lclog/1126","@odata.type":"#LogEntry.1.0.0.LogEntry","Created":"2017-01-09T17:44:56-06:00","Description":" Log Entry 1126","EntryType":"Oem","Id":"1126","Links":{"OriginOfCondition":{"@odata.id":"/redfish/v1/Managers/iDRAC.Embedded.1"}},"Message":"Successfully logged in using root, from 10.6.87.1 and REDFISH.","MessageArgs":["root","10.6.87.1","REDFISH"],"MessageID":"USR0030","Name":" Log Entry 1126","OEMRecordFormat":"Dell","Severity":"Ok"},{"@odata.id":"/redfish/v1/Managers/iDRAC.Embedded.1/Logs/Lclog/1125","@odata.type":"#LogEntry.1.0.0.LogEntry","Created":"2017-01-09T17:44:56-06:00","Description":" Log Entry 1125","EntryType":"Oem","Id":"1125","Message":"The previous log entry was repeated 12 times.","MessageArgs":["12"],"MessageID":"LOG007","Name":" Log Entry 1125","OEMRecordFormat":"Dell","Severity":"Ok"},{"@odata.id":"/redfish/v1/Managers/iDRAC.Embedded.1/Logs/Lclog/1124","@odata.type":"#LogEntry.1.0.0.LogEntry","Created":"2017-01-07T23:47:46-06:00","Description":" Log Entry 1124","EntryType":"Oem","Id":"1124","Links":{"OriginOfCondition":{"@odata.id":"/redfish/v1/Managers/iDRAC.Embedded.1"}},"Message":"Successfully logged in using root, from 10.6.87.1 and REDFISH.","MessageArgs":["root","10.6.87.1","REDFISH"],"MessageID":"USR0030","Name":" Log Entry 1124","OEMRecordFormat":"Dell","Severity":"Ok"},{"@odata.id":"/redfish/v1/Managers/iDRAC.Embedded.1/Logs/Lclog/1123","@odata.type":"#LogEntry.1.0.0.LogEntry","Created":"2017-01-07T05:05:55-06:00","Description":" Log Entry 1123","EntryType":"Oem","Id":"1123","Links":{"OriginOfCondition":{"@odata.id":"/redfish/v1/Systems/System.Embedded.1/Storage/Controllers/RAID.Integrated.1-1"}},"Message":"The Patrol Read operation completed for Integrated RAID Controller 1.","MessageArgs":["Integrated RAID Controller 1"],"MessageID":"CTL38","Name":" Log Entry 1123","OEMRecordFormat":"Dell","Severity":"Ok"},{"@odata.id":"/redfish/v1/Managers/iDRAC.Embedded.1/Logs/Lclog/1122","@odata.type":"#LogEntry.1.0.0.LogEntry","Created":"2017-01-07T02:59:45-06:00","Description":" Log Entry 1122","EntryType":"Oem","Id":"1122","Links":{"OriginOfCondition":{"@odata.id":"/redfish/v1/Systems/System.Embedded.1/Storage/Controllers/RAID.Integrated.1-1"}},"Message":"A Patrol Read operation started for Integrated RAID Controller 1.","MessageArgs":["Integrated RAID Controller 1"],"MessageID":"CTL37","Name":" Log Entry 1122","OEMRecordFormat":"Dell","Severity":"Ok"},{"@odata.id":"/redfish/v1/Managers/iDRAC.Embedded.1/Logs/Lclog/1121","@odata.type":"#LogEntry.1.0.0.LogEntry","Created":"2017-01-07T02:59:45-06:00","Description":" Log Entry 1121","EntryType":"Oem","Id":"1121","Message":"The previous log entry was repeated 5 times.","MessageArgs":["5"],"MessageID":"LOG007","Name":" Log Entry 1121","OEMRecordFormat":"Dell","Severity":"Ok"},{"@odata.id":"/redfish/v1/Managers/iDRAC.Embedded.1/Logs/Lclog/1120","@odata.type":"#LogEntry.1.0.0.LogEntry","Created":"2017-01-06T22:36:33-06:00","Description":" Log Entry 1120","EntryType":"Oem","Id":"1120","Links":{"OriginOfCondition":{"@odata.id":"/redfish/v1/Managers/iDRAC.Embedded.1"}},"Message":"Successfully logged in using root, from 10.6.87.1 and REDFISH.","MessageArgs":["root","10.6.87.1","REDFISH"],"MessageID":"USR0030","Name":" Log Entry 1120","OEMRecordFormat":"Dell","Severity":"Ok"},{"@odata.id":"/redfish/v1/Managers/iDRAC.Embedded.1/Logs/Lclog/1119","@odata.type":"#LogEntry.1.0.0.LogEntry","Created":"2017-01-06T19:06:53-06:00","Description":" Log Entry 1119","EntryType":"Oem","Id":"1119","Links":{"OriginOfCondition":{"@odata.id":"/redfish/v1/Systems/System.Embedded.1/EthernetInterfaces/NIC.Integrated.1-3-1"}},"Message":"The NIC Integrated 1 Port 3 network link is started.","MessageArgs":["NIC Integrated 1","3"],"MessageID":"NIC101","Name":" Log Entry 1119","OEMRecordFormat":"Dell","Severity":"Ok"},{"@odata.id":"/redfish/v1/Managers/iDRAC.Embedded.1/Logs/Lclog/1118","@odata.type":"#LogEntry.1.0.0.LogEntry","Created":"2017-01-06T18:51:31-06:00","Description":" Log Entry 1118","EntryType":"Oem","Id":"1118","Links":{"OriginOfCondition":{"@odata.id":"/redfish/v1/Systems/System.Embedded.1/EthernetInterfaces/NIC.Integrated.1-3-1"}},"Message":"The NIC Integrated 1 Port 3 network link is down.","MessageArgs":["NIC Integrated 1","3"],"MessageID":"NIC100","Name":" Log Entry 1118","OEMRecordFormat":"Dell","Severity":"Warning"},{"@odata.id":"/redfish/v1/Managers/iDRAC.Embedded.1/Logs/Lclog/1117","@odata.type":"#LogEntry.1.0.0.LogEntry","Created":"2017-01-06T18:39:45-06:00","Description":" Log Entry 1117","EntryType":"Oem","Id":"1117","Links":{"OriginOfCondition":{"@odata.id":"/redfish/v1/Systems/System.Embedded.1/EthernetInterfaces/NIC.Integrated.1-3-1"}},"Message":"The NIC Integrated 1 Port 3 network link is started.","MessageArgs":["NIC Integrated 1","3"],"MessageID":"NIC101","Name":" Log Entry 1117","OEMRecordFormat":"Dell","Severity":"Ok"},{"@odata.id":"/redfish/v1/Managers/iDRAC.Embedded.1/Logs/Lclog/1116","@odata.type":"#LogEntry.1.0.0.LogEntry","Created":"2017-01-06T18:37:55-06:00","Description":" Log Entry 1116","EntryType":"Oem","Id":"1116","Links":{"OriginOfCondition":{"@odata.id":"/redfish/v1/Systems/System.Embedded.1/EthernetInterfaces/NIC.Integrated.1-3-1"}},"Message":"The NIC Integrated 1 Port 3 network link is down.","MessageArgs":["NIC Integrated 1","3"],"MessageID":"NIC100","Name":" Log Entry 1116","OEMRecordFormat":"Dell","Severity":"Warning"},{"@odata.id":"/redfish/v1/Managers/iDRAC.Embedded.1/Logs/Lclog/1115","@odata.type":"#LogEntry.1.0.0.LogEntry","Created":"2017-01-06T18:37:55-06:00","Description":" Log Entry 1115","EntryType":"Oem","Id":"1115","Message":"The previous log entry was repeated 312 times.","MessageArgs":["312"],"MessageID":"LOG007","Name":" Log Entry 1115","OEMRecordFormat":"Dell","Severity":"Ok"},{"@odata.id":"/redfish/v1/Managers/iDRAC.Embedded.1/Logs/Lclog/1114","@odata.type":"#LogEntry.1.0.0.LogEntry","Created":"2017-01-05T21:28:25-06:00","Description":" Log Entry 1114","EntryType":"Oem","Id":"1114","Links":{"OriginOfCondition":{"@odata.id":"/redfish/v1/Managers/iDRAC.Embedded.1"}},"Message":"Successfully logged in using root, from 10.6.87.1 and REDFISH.","MessageArgs":["root","10.6.87.1","REDFISH"],"MessageID":"USR0030","Name":" Log Entry 1114","OEMRecordFormat":"Dell","Severity":"Ok"},{"@odata.id":"/redfish/v1/Managers/iDRAC.Embedded.1/Logs/Lclog/1113","@odata.type":"#LogEntry.1.0.0.LogEntry","Created":"2017-01-05T12:18:47-06:00","Description":" Log Entry 1113","EntryType":"Oem","Id":"1113","Links":{"OriginOfCondition":{"@odata.id":"/redfish/v1/Managers/iDRAC.Embedded.1"}},"Message":"Unable to log in for root from 10.6.87.1 using REDFISH.","MessageArgs":["root","10.6.87.1","REDFISH"],"MessageID":"USR0031","Name":" Log Entry 1113","OEMRecordFormat":"Dell","Severity":"Ok"},{"@odata.id":"/redfish/v1/Managers/iDRAC.Embedded.1/Logs/Lclog/1112","@odata.type":"#LogEntry.1.0.0.LogEntry","Created":"2017-01-05T12:18:47-06:00","Description":" Log Entry 1112","EntryType":"Oem","Id":"1112","Message":"The previous log entry was repeated 55 times.","MessageArgs":["55"],"MessageID":"LOG007","Name":" Log Entry 1112","OEMRecordFormat":"Dell","Severity":"Ok"},{"@odata.id":"/redfish/v1/Managers/iDRAC.Embedded.1/Logs/Lclog/1111","@odata.type":"#LogEntry.1.0.0.LogEntry","Created":"2016-12-31T05:30:28-06:00","Description":" Log Entry 1111","EntryType":"Oem","Id":"1111","Links":{"OriginOfCondition":{"@odata.id":"/redfish/v1/Managers/iDRAC.Embedded.1"}},"Message":"Successfully logged in using root, from 10.6.87.1 and REDFISH.","MessageArgs":["root","10.6.87.1","REDFISH"],"MessageID":"USR0030","Name":" Log Entry 1111","OEMRecordFormat":"Dell","Severity":"Ok"},{"@odata.id":"/redfish/v1/Managers/iDRAC.Embedded.1/Logs/Lclog/1110","@odata.type":"#LogEntry.1.0.0.LogEntry","Created":"2016-12-31T05:05:59-06:00","Description":" Log Entry 1110","EntryType":"Oem","Id":"1110","Links":{"OriginOfCondition":{"@odata.id":"/redfish/v1/Systems/System.Embedded.1/Storage/Controllers/RAID.Integrated.1-1"}},"Message":"The Patrol Read operation completed for Integrated RAID Controller 1.","MessageArgs":["Integrated RAID Controller 1"],"MessageID":"CTL38","Name":" Log Entry 1110","OEMRecordFormat":"Dell","Severity":"Ok"},{"@odata.id":"/redfish/v1/Managers/iDRAC.Embedded.1/Logs/Lclog/1109","@odata.type":"#LogEntry.1.0.0.LogEntry","Created":"2016-12-31T02:59:49-06:00","Description":" Log Entry 1109","EntryType":"Oem","Id":"1109","Links":{"OriginOfCondition":{"@odata.id":"/redfish/v1/Systems/System.Embedded.1/Storage/Controllers/RAID.Integrated.1-1"}},"Message":"A Patrol Read operation started for Integrated RAID Controller 1.","MessageArgs":["Integrated RAID Controller 1"],"MessageID":"CTL37","Name":" Log Entry 1109","OEMRecordFormat":"Dell","Severity":"Ok"},{"@odata.id":"/redfish/v1/Managers/iDRAC.Embedded.1/Logs/Lclog/1108","@odata.type":"#LogEntry.1.0.0.LogEntry","Created":"2016-12-31T02:59:49-06:00","Description":" Log Entry 1108","EntryType":"Oem","Id":"1108","Message":"The previous log entry was repeated 31 times.","MessageArgs":["31"],"MessageID":"LOG007","Name":" Log Entry 1108","OEMRecordFormat":"Dell","Severity":"Ok"},{"@odata.id":"/redfish/v1/Managers/iDRAC.Embedded.1/Logs/Lclog/1107","@odata.type":"#LogEntry.1.0.0.LogEntry","Created":"2016-12-30T11:06:33-06:00","Description":" Log Entry 1107","EntryType":"Oem","Id":"1107","Links":{"OriginOfCondition":{"@odata.id":"/redfish/v1/Managers/iDRAC.Embedded.1"}},"Message":"Successfully logged in using root, from 10.6.87.1 and REDFISH.","MessageArgs":["root","10.6.87.1","REDFISH"],"MessageID":"USR0030","Name":" Log Entry 1107","OEMRecordFormat":"Dell","Severity":"Ok"},{"@odata.id":"/redfish/v1/Managers/iDRAC.Embedded.1/Logs/Lclog/1106","@odata.type":"#LogEntry.1.0.0.LogEntry","Created":"2016-12-25T12:15:50-06:00","Description":" Log Entry 1106","EntryType":"Oem","Id":"1106","Links":{"OriginOfCondition":{"@odata.id":"/redfish/v1/Managers/iDRAC.Embedded.1"}},"Message":"The session for root from 10.6.87.1 using IPMI over LAN is logged off.","MessageArgs":["root","10.6.87.1","IPMI over LAN"],"MessageID":"USR0032","Name":" Log Entry 1106","OEMRecordFormat":"Dell","Severity":"Ok"},{"@odata.id":"/redfish/v1/Managers/iDRAC.Embedded.1/Logs/Lclog/1105","@odata.type":"#LogEntry.1.0.0.LogEntry","Created":"2016-12-25T12:15:50-06:00","Description":" Log Entry 1105","EntryType":"Oem","Id":"1105","Links":{"OriginOfCondition":{"@odata.id":"/redfish/v1/Managers/iDRAC.Embedded.1"}},"Message":"Successfully logged in using root, from 10.6.87.1 and IPMI over LAN.","MessageArgs":["root","10.6.87.1","IPMI over LAN"],"MessageID":"USR0030","Name":" Log Entry 1105","OEMRecordFormat":"Dell","Severity":"Ok"},{"@odata.id":"/redfish/v1/Managers/iDRAC.Embedded.1/Logs/Lclog/1104","@odata.type":"#LogEntry.1.0.0.LogEntry","Created":"2016-12-25T12:15:50-06:00","Description":" Log Entry 1104","EntryType":"Oem","Id":"1104","Links":{"OriginOfCondition":{"@odata.id":"/redfish/v1/Managers/iDRAC.Embedded.1"}},"Message":"The session for root from 10.6.87.1 using IPMI over LAN is logged off.","MessageArgs":["root","10.6.87.1","IPMI over LAN"],"MessageID":"USR0032","Name":" Log Entry 1104","OEMRecordFormat":"Dell","Severity":"Ok"},{"@odata.id":"/redfish/v1/Managers/iDRAC.Embedded.1/Logs/Lclog/1103","@odata.type":"#LogEntry.1.0.0.LogEntry","Created":"2016-12-25T12:15:50-06:00","Description":" Log Entry 1103","EntryType":"Oem","Id":"1103","Links":{"OriginOfCondition":{"@odata.id":"/redfish/v1/Managers/iDRAC.Embedded.1"}},"Message":"Successfully logged in using root, from 10.6.87.1 and IPMI over LAN.","MessageArgs":["root","10.6.87.1","IPMI over LAN"],"MessageID":"USR0030","Name":" Log Entry 1103","OEMRecordFormat":"Dell","Severity":"Ok"},{"@odata.id":"/redfish/v1/Managers/iDRAC.Embedded.1/Logs/Lclog/1102","@odata.type":"#LogEntry.1.0.0.LogEntry","Created":"2016-12-25T12:14:02-06:00","Description":" Log Entry 1102","EntryType":"Oem","Id":"1102","Links":{"OriginOfCondition":{"@odata.id":"/redfish/v1/Managers/iDRAC.Embedded.1"}},"Message":"The session for root from 10.6.87.1 using IPMI over LAN is logged off.","MessageArgs":["root","10.6.87.1","IPMI over LAN"],"MessageID":"USR0032","Name":" Log Entry 1102","OEMRecordFormat":"Dell","Severity":"Ok"},{"@odata.id":"/redfish/v1/Managers/iDRAC.Embedded.1/Logs/Lclog/1101","@odata.type":"#LogEntry.1.0.0.LogEntry","Created":"2016-12-25T12:14:01-06:00","Description":" Log Entry 1101","EntryType":"Oem","Id":"1101","Links":{"OriginOfCondition":{"@odata.id":"/redfish/v1/Managers/iDRAC.Embedded.1"}},"Message":"Successfully logged in using root, from 10.6.87.1 and IPMI over LAN.","MessageArgs":["root","10.6.87.1","IPMI over LAN"],"MessageID":"USR0030","Name":" Log Entry 1101","OEMRecordFormat":"Dell","Severity":"Ok"},{"@odata.id":"/redfish/v1/Managers/iDRAC.Embedded.1/Logs/Lclog/1100","@odata.type":"#LogEntry.1.0.0.LogEntry","Created":"2016-12-25T12:14:01-06:00","Description":" Log Entry 1100","EntryType":"Oem","Id":"1100","Links":{"OriginOfCondition":{"@odata.id":"/redfish/v1/Managers/iDRAC.Embedded.1"}},"Message":"The session for root from 10.6.87.1 using IPMI over LAN is logged off.","MessageArgs":["root","10.6.87.1","IPMI over LAN"],"MessageID":"USR0032","Name":" Log Entry 1100","OEMRecordFormat":"Dell","Severity":"Ok"},{"@odata.id":"/redfish/v1/Managers/iDRAC.Embedded.1/Logs/Lclog/1099","@odata.type":"#LogEntry.1.0.0.LogEntry","Created":"2016-12-25T12:14:01-06:00","Description":" Log Entry 1099","EntryType":"Oem","Id":"1099","Links":{"OriginOfCondition":{"@odata.id":"/redfish/v1/Managers/iDRAC.Embedded.1"}},"Message":"Successfully logged in using root, from 10.6.87.1 and IPMI over LAN.","MessageArgs":["root","10.6.87.1","IPMI over LAN"],"MessageID":"USR0030","Name":" Log Entry 1099","OEMRecordFormat":"Dell","Severity":"Ok"},{"@odata.id":"/redfish/v1/Managers/iDRAC.Embedded.1/Logs/Lclog/1098","@odata.type":"#LogEntry.1.0.0.LogEntry","Created":"2016-12-25T12:13:13-06:00","Description":" Log Entry 1098","EntryType":"Oem","Id":"1098","Links":{"OriginOfCondition":{"@odata.id":"/redfish/v1/Managers/iDRAC.Embedded.1"}},"Message":"The session for root from 10.6.87.1 using IPMI over LAN is logged off.","MessageArgs":["root","10.6.87.1","IPMI over LAN"],"MessageID":"USR0032","Name":" Log Entry 1098","OEMRecordFormat":"Dell","Severity":"Ok"},{"@odata.id":"/redfish/v1/Managers/iDRAC.Embedded.1/Logs/Lclog/1097","@odata.type":"#LogEntry.1.0.0.LogEntry","Created":"2016-12-25T12:13:13-06:00","Description":" Log Entry 1097","EntryType":"Oem","Id":"1097","Links":{"OriginOfCondition":{"@odata.id":"/redfish/v1/Managers/iDRAC.Embedded.1"}},"Message":"Successfully logged in using root, from 10.6.87.1 and IPMI over LAN.","MessageArgs":["root","10.6.87.1","IPMI over LAN"],"MessageID":"USR0030","Name":" Log Entry 1097","OEMRecordFormat":"Dell","Severity":"Ok"},{"@odata.id":"/redfish/v1/Managers/iDRAC.Embedded.1/Logs/Lclog/1096","@odata.type":"#LogEntry.1.0.0.LogEntry","Created":"2016-12-25T12:11:36-06:00","Description":" Log Entry 1096","EntryType":"Oem","Id":"1096","Links":{"OriginOfCondition":{"@odata.id":"/redfish/v1/Managers/iDRAC.Embedded.1"}},"Message":"The session for root from 10.6.87.1 using IPMI over LAN is logged off.","MessageArgs":["root","10.6.87.1","IPMI over LAN"],"MessageID":"USR0032","Name":" Log Entry 1096","OEMRecordFormat":"Dell","Severity":"Ok"},{"@odata.id":"/redfish/v1/Managers/iDRAC.Embedded.1/Logs/Lclog/1095","@odata.type":"#LogEntry.1.0.0.LogEntry","Created":"2016-12-25T12:11:36-06:00","Description":" Log Entry 1095","EntryType":"Oem","Id":"1095","Links":{"OriginOfCondition":{"@odata.id":"/redfish/v1/Managers/iDRAC.Embedded.1"}},"Message":"Successfully logged in using root, from 10.6.87.1 and IPMI over LAN.","MessageArgs":["root","10.6.87.1","IPMI over LAN"],"MessageID":"USR0030","Name":" Log Entry 1095","OEMRecordFormat":"Dell","Severity":"Ok"},{"@odata.id":"/redfish/v1/Managers/iDRAC.Embedded.1/Logs/Lclog/1094","@odata.type":"#LogEntry.1.0.0.LogEntry","Created":"2016-12-25T11:57:49-06:00","Description":" Log Entry 1094","EntryType":"Oem","Id":"1094","Links":{"OriginOfCondition":{"@odata.id":"/redfish/v1/Managers/iDRAC.Embedded.1"}},"Message":"The session for root from 10.6.87.1 using IPMI over LAN is logged off.","MessageArgs":["root","10.6.87.1","IPMI over LAN"],"MessageID":"USR0032","Name":" Log Entry 1094","OEMRecordFormat":"Dell","Severity":"Ok"},{"@odata.id":"/redfish/v1/Managers/iDRAC.Embedded.1/Logs/Lclog/1093","@odata.type":"#LogEntry.1.0.0.LogEntry","Created":"2016-12-25T11:57:48-06:00","Description":" Log Entry 1093","EntryType":"Oem","Id":"1093","Links":{"OriginOfCondition":{"@odata.id":"/redfish/v1/Managers/iDRAC.Embedded.1"}},"Message":"Successfully logged in using root, from 10.6.87.1 and IPMI over LAN.","MessageArgs":["root","10.6.87.1","IPMI over LAN"],"MessageID":"USR0030","Name":" Log Entry 1093","OEMRecordFormat":"Dell","Severity":"Ok"},{"@odata.id":"/redfish/v1/Managers/iDRAC.Embedded.1/Logs/Lclog/1092","@odata.type":"#LogEntry.1.0.0.LogEntry","Created":"2016-12-25T11:57:47-06:00","Description":" Log Entry 1092","EntryType":"Oem","Id":"1092","Links":{"OriginOfCondition":{"@odata.id":"/redfish/v1/Managers/iDRAC.Embedded.1"}},"Message":"The session for root from 10.6.87.1 using IPMI over LAN is logged off.","MessageArgs":["root","10.6.87.1","IPMI over LAN"],"MessageID":"USR0032","Name":" Log Entry 1092","OEMRecordFormat":"Dell","Severity":"Ok"},{"@odata.id":"/redfish/v1/Managers/iDRAC.Embedded.1/Logs/Lclog/1091","@odata.type":"#LogEntry.1.0.0.LogEntry","Created":"2016-12-25T11:57:46-06:00","Description":" Log Entry 1091","EntryType":"Oem","Id":"1091","Links":{"OriginOfCondition":{"@odata.id":"/redfish/v1/Managers/iDRAC.Embedded.1"}},"Message":"Successfully logged in using root, from 10.6.87.1 and IPMI over LAN.","MessageArgs":["root","10.6.87.1","IPMI over LAN"],"MessageID":"USR0030","Name":" Log Entry 1091","OEMRecordFormat":"Dell","Severity":"Ok"},{"@odata.id":"/redfish/v1/Managers/iDRAC.Embedded.1/Logs/Lclog/1090","@odata.type":"#LogEntry.1.0.0.LogEntry","Created":"2016-12-25T11:56:46-06:00","Description":" Log Entry 1090","EntryType":"Oem","Id":"1090","Links":{"OriginOfCondition":{"@odata.id":"/redfish/v1/Managers/iDRAC.Embedded.1"}},"Message":"The session for root from 10.6.87.1 using IPMI over LAN is logged off.","MessageArgs":["root","10.6.87.1","IPMI over LAN"],"MessageID":"USR0032","Name":" Log Entry 1090","OEMRecordFormat":"Dell","Severity":"Ok"},{"@odata.id":"/redfish/v1/Managers/iDRAC.Embedded.1/Logs/Lclog/1089","@odata.type":"#LogEntry.1.0.0.LogEntry","Created":"2016-12-25T11:56:45-06:00","Description":" Log Entry 1089","EntryType":"Oem","Id":"1089","Links":{"OriginOfCondition":{"@odata.id":"/redfish/v1/Managers/iDRAC.Embedded.1"}},"Message":"Successfully logged in using root, from 10.6.87.1 and IPMI over LAN.","MessageArgs":["root","10.6.87.1","IPMI over LAN"],"MessageID":"USR0030","Name":" Log Entry 1089","OEMRecordFormat":"Dell","Severity":"Ok"},{"@odata.id":"/redfish/v1/Managers/iDRAC.Embedded.1/Logs/Lclog/1088","@odata.type":"#LogEntry.1.0.0.LogEntry","Created":"2016-12-25T11:56:44-06:00","Description":" Log Entry 1088","EntryType":"Oem","Id":"1088","Links":{"OriginOfCondition":{"@odata.id":"/redfish/v1/Managers/iDRAC.Embedded.1"}},"Message":"The session for root from 10.6.87.1 using IPMI over LAN is logged off.","MessageArgs":["root","10.6.87.1","IPMI over LAN"],"MessageID":"USR0032","Name":" Log Entry 1088","OEMRecordFormat":"Dell","Severity":"Ok"},{"@odata.id":"/redfish/v1/Managers/iDRAC.Embedded.1/Logs/Lclog/1087","@odata.type":"#LogEntry.1.0.0.LogEntry","Created":"2016-12-25T11:56:43-06:00","Description":" Log Entry 1087","EntryType":"Oem","Id":"1087","Links":{"OriginOfCondition":{"@odata.id":"/redfish/v1/Managers/iDRAC.Embedded.1"}},"Message":"Successfully logged in using root, from 10.6.87.1 and IPMI over LAN.","MessageArgs":["root","10.6.87.1","IPMI over LAN"],"MessageID":"USR0030","Name":" Log Entry 1087","OEMRecordFormat":"Dell","Severity":"Ok"},{"@odata.id":"/redfish/v1/Managers/iDRAC.Embedded.1/Logs/Lclog/1086","@odata.type":"#LogEntry.1.0.0.LogEntry","Created":"2016-12-25T11:56:05-06:00","Description":" Log Entry 1086","EntryType":"Oem","Id":"1086","Links":{"OriginOfCondition":{"@odata.id":"/redfish/v1/Managers/iDRAC.Embedded.1"}},"Message":"The session for root from 10.6.87.1 using IPMI over LAN is logged off.","MessageArgs":["root","10.6.87.1","IPMI over LAN"],"MessageID":"USR0032","Name":" Log Entry 1086","OEMRecordFormat":"Dell","Severity":"Ok"},{"@odata.id":"/redfish/v1/Managers/iDRAC.Embedded.1/Logs/Lclog/1085","@odata.type":"#LogEntry.1.0.0.LogEntry","Created":"2016-12-25T11:56:04-06:00","Description":" Log Entry 1085","EntryType":"Oem","Id":"1085","Links":{"OriginOfCondition":{"@odata.id":"/redfish/v1/Managers/iDRAC.Embedded.1"}},"Message":"Successfully logged in using root, from 10.6.87.1 and IPMI over LAN.","MessageArgs":["root","10.6.87.1","IPMI over LAN"],"MessageID":"USR0030","Name":" Log Entry 1085","OEMRecordFormat":"Dell","Severity":"Ok"},{"@odata.id":"/redfish/v1/Managers/iDRAC.Embedded.1/Logs/Lclog/1084","@odata.type":"#LogEntry.1.0.0.LogEntry","Created":"2016-12-25T11:53:58-06:00","Description":" Log Entry 1084","EntryType":"Oem","Id":"1084","Links":{"OriginOfCondition":{"@odata.id":"/redfish/v1/Managers/iDRAC.Embedded.1"}},"Message":"The session for root from 10.6.87.1 using IPMI over LAN is logged off.","MessageArgs":["root","10.6.87.1","IPMI over LAN"],"MessageID":"USR0032","Name":" Log Entry 1084","OEMRecordFormat":"Dell","Severity":"Ok"},{"@odata.id":"/redfish/v1/Managers/iDRAC.Embedded.1/Logs/Lclog/1083","@odata.type":"#LogEntry.1.0.0.LogEntry","Created":"2016-12-25T11:53:56-06:00","Description":" Log Entry 1083","EntryType":"Oem","Id":"1083","Links":{"OriginOfCondition":{"@odata.id":"/redfish/v1/Managers/iDRAC.Embedded.1"}},"Message":"Successfully logged in using root, from 10.6.87.1 and IPMI over LAN.","MessageArgs":["root","10.6.87.1","IPMI over LAN"],"MessageID":"USR0030","Name":" Log Entry 1083","OEMRecordFormat":"Dell","Severity":"Ok"},{"@odata.id":"/redfish/v1/Managers/iDRAC.Embedded.1/Logs/Lclog/1082","@odata.type":"#LogEntry.1.0.0.LogEntry","Created":"2016-12-25T11:46:53-06:00","Description":" Log Entry 1082","EntryType":"Oem","Id":"1082","Links":{"OriginOfCondition":{"@odata.id":"/redfish/v1/Managers/iDRAC.Embedded.1"}},"Message":"The session for root from 10.6.87.1 using IPMI over LAN is logged off.","MessageArgs":["root","10.6.87.1","IPMI over LAN"],"MessageID":"USR0032","Name":" Log Entry 1082","OEMRecordFormat":"Dell","Severity":"Ok"},{"@odata.id":"/redfish/v1/Managers/iDRAC.Embedded.1/Logs/Lclog/1081","@odata.type":"#LogEntry.1.0.0.LogEntry","Created":"2016-12-25T11:45:02-06:00","Description":" Log Entry 1081","EntryType":"Oem","Id":"1081","Links":{"OriginOfCondition":{"@odata.id":"/redfish/v1/Managers/iDRAC.Embedded.1"}},"Message":"Successfully logged in using root, from 10.6.87.1 and IPMI over LAN.","MessageArgs":["root","10.6.87.1","IPMI over LAN"],"MessageID":"USR0030","Name":" Log Entry 1081","OEMRecordFormat":"Dell","Severity":"Ok"}],"Name":"Log Entry Collection"}
