{"@odata.context":"/redfish/v1/$metadata#Managers/Members/iDRAC.Embedded.1/LogServices/Members/Lclog/Entries/$entity","@odata.count":973,"@odata.id":"/redfish/v1/Managers/iDRAC.Embedded.1/Logs/Lclog","@odata.nextLink":"/redfish/v1/Managers/iDRAC.Embedded.1/Logs/Lclog?$skip=50","@odata.type":"#LogEntry.1.0.0.LogEntryCollection","Description":"LC Logs for this manager","Members":[{"@odata.id":"/redfish/v1/Managers/iDRAC.Embedded.1/Logs/Lclog/973","@odata.type":"#LogEntry.1.0.0.LogEntry","Created":"2017-01-13T21:58:57-06:00","Description":" Log Entry 973","EntryType":"Oem","Id":"973","Links":{"OriginOfCondition":{"@odata.id":"/redfish/v1/Managers/iDRAC.Embedded.1"}},"Message":"Successfully logged in using root, from 10.6.87.1 and REDFISH.","MessageArgs":["root","10.6.87.1","REDFISH"],"MessageID":"USR0030","Name":" Log Entry 973","OEMRecordFormat":"Dell","Severity":"Ok"},{"@odata.id":"/redfish/v1/Managers/iDRAC.Embedded.1/Logs/Lclog/972","@odata.type":"#LogEntry.1.0.0.LogEntry","Created":"2017-01-13T21:58:57-06:00","Description":" Log Entry 972","EntryType":"Oem","Id":"972","Message":"The previous log entry was repeated 478 times.","MessageArgs":["478"],"MessageID":"LOG007","Name":" Log Entry 972","OEMRecordFormat":"Dell","Severity":"Ok"},{"@odata.id":"/redfish/v1/Managers/iDRAC.Embedded.1/Logs/Lclog/971","@odata.type":"#LogEntry.1.0.0.LogEntry","Created":"2017-01-11T02:28:11-06:00","Description":" Log Entry 971","EntryType":"Oem","Id":"971","Links":{"OriginOfCondition":{"@odata.id":"/redfish/v1/Managers/iDRAC.Embedded.1"}},"Message":"Successfully logged in using root, from 10.6.87.1 and REDFISH.","MessageArgs":["root","10.6.87.1","REDFISH"],"MessageID":"USR0030","Name":" Log Entry 971","OEMRecordFormat":"Dell","Severity":"Ok"},{"@odata.id":"/redfish/v1/Managers/iDRAC.Embedded.1/Logs/Lclog/970","@odata.type":"#LogEntry.1.0.0.LogEntry","Created":"2017-01-11T02:28:11-06:00","Description":" Log Entry 970","EntryType":"Oem","Id":"970","Message":"The previous log entry was repeated 210 times.","MessageArgs":["210"],"MessageID":"LOG007","Name":" Log Entry 970","OEMRecordFormat":"Dell","Severity":"Ok"},{"@odata.id":"/redfish/v1/Managers/iDRAC.Embedded.1/Logs/Lclog/969","@odata.type":"#LogEntry.1.0.0.LogEntry","Created":"2017-01-09T20:10:09-06:00","Description":" Log Entry 969","EntryType":"Oem","Id":"969","Links":{"OriginOfCondition":{"@odata.id":"/redfish/v1/Managers/iDRAC.Embedded.1"}},"Message":"Successfully logged in using root, from 10.6.87.1 and REDFISH.","MessageArgs":["root","10.6.87.1","REDFISH"],"MessageID":"USR0030","Name":" Log Entry 969","OEMRecordFormat":"Dell","Severity":"Ok"},{"@odata.id":"/redfish/v1/Managers/iDRAC.Embedded.1/Logs/Lclog/968","@odata.type":"#LogEntry.1.0.0.LogEntry","Created":"2017-01-07T04:08:44-06:00","Description":" Log Entry 968","EntryType":"Oem","Id":"968","Links":{"OriginOfCondition":{"@odata.id":"/redfish/v1/Systems/System.Embedded.1/Storage/Controllers/RAID.Integrated.1-1"}},"Message":"The Patrol Read operation completed for Integrated RAID Controller 1.","MessageArgs":["Integrated RAID Controller 1"],"MessageID":"CTL38","Name":" Log Entry 968","OEMRecordFormat":"Dell","Severity":"Ok"},{"@odata.id":"/redfish/v1/Managers/iDRAC.Embedded.1/Logs/Lclog/967","@odata.type":"#LogEntry.1.0.0.LogEntry","Created":"2017-01-07T01:58:22-06:00","Description":" Log Entry 967","EntryType":"Oem","Id":"967","Links":{"OriginOfCondition":{"@odata.id":"/redfish/v1/Systems/System.Embedded.1/Storage/Controllers/RAID.Integrated.1-1"}},"Message":"A Patrol Read operation started for Integrated RAID Controller 1.","MessageArgs":["Integrated RAID Controller 1"],"MessageID":"CTL37","Name":" Log Entry 967","OEMRecordFormat":"Dell","Severity":"Ok"},{"@odata.id":"/redfish/v1/Managers/iDRAC.Embedded.1/Logs/Lclog/966","@odata.type":"#LogEntry.1.0.0.LogEntry","Created":"2017-01-06T18:05:37-06:00","Description":" Log Entry 966","EntryType":"Oem","Id":"966","Links":{"OriginOfCondition":{"@odata.id":"/redfish/v1/Systems/System.Embedded.1/EthernetInterfaces/NIC.Integrated.1-3-1"}},"Message":"The NIC Integrated 1 Port 3 network link is started.","MessageArgs":["NIC Integrated 1","3"],"MessageID":"NIC101","Name":" Log Entry 966","OEMRecordFormat":"Dell","Severity":"Ok"},{"@odata.id":"/redfish/v1/Managers/iDRAC.Embedded.1/Logs/Lclog/965","@odata.type":"#LogEntry.1.0.0.LogEntry","Created":"2017-01-06T17:50:30-06:00","Description":" Log Entry 965","EntryType":"Oem","Id":"965","Links":{"OriginOfCondition":{"@odata.id":"/redfish/v1/Systems/System.Embedded.1/EthernetInterfaces/NIC.Integrated.1-3-1"}},"Message":"The NIC Integrated 1 Port 3 network link is down.","MessageArgs":["NIC Integrated 1","3"],"MessageID":"NIC100","Name":" Log Entry 965","OEMRecordFormat":"Dell","Severity":"Warning"},{"@odata.id":"/redfish/v1/Managers/iDRAC.Embedded.1/Logs/Lclog/964","@odata.type":"#LogEntry.1.0.0.LogEntry","Created":"2017-01-06T17:38:29-06:00","Description":" Log Entry 964","EntryType":"Oem","Id":"964","Links":{"OriginOfCondition":{"@odata.id":"/redfish/v1/Systems/System.Embedded.1/EthernetInterfaces/NIC.Integrated.1-3-1"}},"Message":"The NIC Integrated 1 Port 3 network link is started.","MessageArgs":["NIC Integrated 1","3"],"MessageID":"NIC101","Name":" Log Entry 964","OEMRecordFormat":"Dell","Severity":"Ok"},{"@odata.id":"/redfish/v1/Managers/iDRAC.Embedded.1/Logs/Lclog/963","@odata.type":"#LogEntry.1.0.0.LogEntry","Created":"2017-01-06T17:36:44-06:00","Description":" Log Entry 963","EntryType":"Oem","Id":"963","Links":{"OriginOfCondition":{"@odata.id":"/redfish/v1/Systems/System.Embedded.1/EthernetInterfaces/NIC.Integrated.1-3-1"}},"Message":"The NIC Integrated 1 Port 3 network link is down.","MessageArgs":["NIC Integrated 1","3"],"MessageID":"NIC100","Name":" Log Entry 963","OEMRecordFormat":"Dell","Severity":"Warning"},{"@odata.id":"/redfish/v1/Managers/iDRAC.Embedded.1/Logs/Lclog/962","@odata.type":"#LogEntry.1.0.0.LogEntry","Created":"2017-01-06T17:36:44-06:00","Description":" Log Entry 962","EntryType":"Oem","Id":"962","Message":"The previous log entry was repeated 2 times.","MessageArgs":["2"],"MessageID":"LOG007","Name":" Log Entry 962","OEMRecordFormat":"Dell","Severity":"Ok"},{"@odata.id":"/redfish/v1/Managers/iDRAC.Embedded.1/Logs/Lclog/961","@odata.type":"#LogEntry.1.0.0.LogEntry","Created":"2017-01-05T20:27:21-06:00","Description":" Log Entry 961","EntryType":"Oem","Id":"961","Links":{"OriginOfCondition":{"@odata.id":"/redfish/v1/Managers/iDRAC.Embedded.1"}},"Message":"Successfully logged in using root, from 10.6.87.1 and REDFISH.","MessageArgs":["root","10.6.87.1","REDFISH"],"MessageID":"USR0030","Name":" Log Entry 961","OEMRecordFormat":"Dell","Severity":"Ok"},{"@odata.id":"/redfish/v1/Managers/iDRAC.Embedded.1/Logs/Lclog/960","@odata.type":"#LogEntry.1.0.0.LogEntry","Created":"2017-01-05T11:17:45-06:00","Description":" Log Entry 960","EntryType":"Oem","Id":"960","Links":{"OriginOfCondition":{"@odata.id":"/redfish/v1/Managers/iDRAC.Embedded.1"}},"Message":"Login attempt alert for root from 10.6.87.1 using REDFISH, IP will be blocked for 30 seconds.","MessageArgs":["root","10.6.87.1","REDFISH","30"],"MessageID":"USR0034","Name":" Log Entry 960","OEMRecordFormat":"Dell","Severity":"Warning"},{"@odata.id":"/redfish/v1/Managers/iDRAC.Embedded.1/Logs/Lclog/959","@odata.type":"#LogEntry.1.0.0.LogEntry","Created":"2017-01-05T11:17:45-06:00","Description":" Log Entry 959","EntryType":"Oem","Id":"959","Message":"The previous log entry was repeated 1 times.","MessageArgs":["1"],"MessageID":"LOG007","Name":" Log Entry 959","OEMRecordFormat":"Dell","Severity":"Ok"},{"@odata.id":"/redfish/v1/Managers/iDRAC.Embedded.1/Logs/Lclog/958","@odata.type":"#LogEntry.1.0.0.LogEntry","Created":"2017-01-05T11:17:44-06:00","Description":" Log Entry 958","EntryType":"Oem","Id":"958","Links":{"OriginOfCondition":{"@odata.id":"/redfish/v1/Managers/iDRAC.Embedded.1"}},"Message":"Unable to log in for root from 10.6.87.1 using REDFISH.","MessageArgs":["root","10.6.87.1","REDFISH"],"MessageID":"USR0031","Name":" Log Entry 958","OEMRecordFormat":"Dell","Severity":"Ok"},{"@odata.id":"/redfish/v1/Managers/iDRAC.Embedded.1/Logs/Lclog/957","@odata.type":"#LogEntry.1.0.0.LogEntry","Created":"2017-01-05T11:17:44-06:00","Description":" Log Entry 957","EntryType":"Oem","Id":"957","Message":"The previous log entry was repeated 56 times.","MessageArgs":["56"],"MessageID":"LOG007","Name":" Log Entry 957","OEMRecordFormat":"Dell","Severity":"Ok"},{"@odata.id":"/redfish/v1/Managers/iDRAC.Embedded.1/Logs/Lclog/956","@odata.type":"#LogEntry.1.0.0.LogEntry","Created":"2016-12-31T04:29:31-06:00","Description":" Log Entry 956","EntryType":"Oem","Id":"956","Links":{"OriginOfCondition":{"@odata.id":"/redfish/v1/Managers/iDRAC.Embedded.1"}},"Message":"Successfully logged in using root, from 10.6.87.1 and REDFISH.","MessageArgs":["root","10.6.87.1","REDFISH"],"MessageID":"USR0030","Name":" Log Entry 956","OEMRecordFormat":"Dell","Severity":"Ok"},{"@odata.id":"/redfish/v1/Managers/iDRAC.Embedded.1/Logs/Lclog/955","@odata.type":"#LogEntry.1.0.0.LogEntry","Created":"2016-12-31T04:09:13-06:00","Description":" Log Entry 955","EntryType":"Oem","Id":"955","Links":{"OriginOfCondition":{"@odata.id":"/redfish/v1/Systems/System.Embedded.1/Storage/Controllers/RAID.Integrated.1-1"}},"Message":"The Patrol Read operation completed for Integrated RAID Controller 1.","MessageArgs":["Integrated RAID Controller 1"],"MessageID":"CTL38","Name":" Log Entry 955","OEMRecordFormat":"Dell","Severity":"Ok"},{"@odata.id":"/redfish/v1/Managers/iDRAC.Embedded.1/Logs/Lclog/954","@odata.type":"#LogEntry.1.0.0.LogEntry","Created":"2016-12-31T01:58:29-06:00","Description":" Log Entry 954","EntryType":"Oem","Id":"954","Links":{"OriginOfCondition":{"@odata.id":"/redfish/v1/Systems/System.Embedded.1/Storage/Controllers/RAID.Integrated.1-1"}},"Message":"A Patrol Read operation started for Integrated RAID Controller 1.","MessageArgs":["Integrated RAID Controller 1"],"MessageID":"CTL37","Name":" Log Entry 954","OEMRecordFormat":"Dell","Severity":"Ok"},{"@odata.id":"/redfish/v1/Managers/iDRAC.Embedded.1/Logs/Lclog/953","@odata.type":"#LogEntry.1.0.0.LogEntry","Created":"2016-12-31T01:58:29-06:00","Description":" Log Entry 953","EntryType":"Oem","Id":"953","Message":"The previous log entry was repeated 21 times.","MessageArgs":["21"],"MessageID":"LOG007","Name":" Log Entry 953","OEMRecordFormat":"Dell","Severity":"Ok"},{"@odata.id":"/redfish/v1/Managers/iDRAC.Embedded.1/Logs/Lclog/952","@odata.type":"#LogEntry.1.0.0.LogEntry","Created":"2016-12-30T10:07:18-06:00","Description":" Log Entry 952","EntryType":"Oem","Id":"952","Links":{"OriginOfCondition":{"@odata.id":"/redfish/v1/Managers/iDRAC.Embedded.1"}},"Message":"Successfully logged in using root, from 10.6.87.1 and REDFISH.","MessageArgs":["root","10.6.87.1","REDFISH"],"MessageID":"USR0030","Name":" Log Entry 952","OEMRecordFormat":"Dell","Severity":"Ok"},{"@odata.id":"/redfish/v1/Managers/iDRAC.Embedded.1/Logs/Lclog/951","@odata.type":"#LogEntry.1.0.0.LogEntry","Created":"2016-12-25T11:14:49-06:00","Description":" Log Entry 951","EntryType":"Oem","Id":"951","Links":{"OriginOfCondition":{"@odata.id":"/redfish/v1/Managers/iDRAC.Embedded.1"}},"Message":"The session for root from 10.6.87.1 using IPMI over LAN is logged off.","MessageArgs":["root","10.6.87.1","IPMI over LAN"],"MessageID":"USR0032","Name":" Log Entry 951","OEMRecordFormat":"Dell","Severity":"Ok"},{"@odata.id":"/redfish/v1/Managers/iDRAC.Embedded.1/Logs/Lclog/950","@odata.type":"#LogEntry.1.0.0.LogEntry","Created":"2016-12-25T11:14:49-06:00","Description":" Log Entry 950","EntryType":"Oem","Id":"950","Links":{"OriginOfCondition":{"@odata.id":"/redfish/v1/Managers/iDRAC.Embedded.1"}},"Message":"Successfully logged in using root, from 10.6.87.1 and IPMI over LAN.","MessageArgs":["root","10.6.87.1","IPMI over LAN"],"MessageID":"USR0030","Name":" Log Entry 950","OEMRecordFormat":"Dell","Severity":"Ok"},{"@odata.id":"/redfish/v1/Managers/iDRAC.Embedded.1/Logs/Lclog/949","@odata.type":"#LogEntry.1.0.0.LogEntry","Created":"2016-12-25T11:14:49-06:00","Description":" Log Entry 949","EntryType":"Oem","Id":"949","Links":{"OriginOfCondition":{"@odata.id":"/redfish/v1/Managers/iDRAC.Embedded.1"}},"Message":"The session for root from 10.6.87.1 using IPMI over LAN is logged off.","MessageArgs":["root","10.6.87.1","IPMI over LAN"],"MessageID":"USR0032","Name":" Log Entry 949","OEMRecordFormat":"Dell","Severity":"Ok"},{"@odata.id":"/redfish/v1/Managers/iDRAC.Embedded.1/Logs/Lclog/948","@odata.type":"#LogEntry.1.0.0.LogEntry","Created":"2016-12-25T11:14:49-06:00","Description":" Log Entry 948","EntryType":"Oem","Id":"948","Links":{"OriginOfCondition":{"@odata.id":"/redfish/v1/Managers/iDRAC.Embedded.1"}},"Message":"Successfully logged in using root, from 10.6.87.1 and IPMI over LAN.","MessageArgs":["root","10.6.87.1","IPMI over LAN"],"MessageID":"USR0030","Name":" Log Entry 948","OEMRecordFormat":"Dell","Severity":"Ok"},{"@odata.id":"/redfish/v1/Managers/iDRAC.Embedded.1/Logs/Lclog/947","@odata.type":"#LogEntry.1.0.0.LogEntry","Created":"2016-12-25T11:13:01-06:00","Description":" Log Entry 947","EntryType":"Oem","Id":"947","Links":{"OriginOfCondition":{"@odata.id":"/redfish/v1/Managers/iDRAC.Embedded.1"}},"Message":"The session for root from 10.6.87.1 using IPMI over LAN is logged off.","MessageArgs":["root","10.6.87.1","IPMI over LAN"],"MessageID":"USR0032","Name":" Log Entry 947","OEMRecordFormat":"Dell","Severity":"Ok"},{"@odata.id":"/redfish/v1/Managers/iDRAC.Embedded.1/Logs/Lclog/946","@odata.type":"#LogEntry.1.0.0.LogEntry","Created":"2016-12-25T11:13:00-06:00","Description":" Log Entry 946","EntryType":"Oem","Id":"946","Links":{"OriginOfCondition":{"@odata.id":"/redfish/v1/Managers/iDRAC.Embedded.1"}},"Message":"Successfully logged in using root, from 10.6.87.1 and IPMI over LAN.","MessageArgs":["root","10.6.87.1","IPMI over LAN"],"MessageID":"USR0030","Name":" Log Entry 946","OEMRecordFormat":"Dell","Severity":"Ok"},{"@odata.id":"/redfish/v1/Managers/iDRAC.Embedded.1/Logs/Lclog/945","@odata.type":"#LogEntry.1.0.0.LogEntry","Created":"2016-12-25T11:13:00-06:00","Description":" Log Entry 945","EntryType":"Oem","Id":"945","Links":{"OriginOfCondition":{"@odata.id":"/redfish/v1/Managers/iDRAC.Embedded.1"}},"Message":"The session for root from 10.6.87.1 using IPMI over LAN is logged off.","MessageArgs":["root","10.6.87.1","IPMI over LAN"],"MessageID":"USR0032","Name":" Log Entry 945","OEMRecordFormat":"Dell","Severity":"Ok"},{"@odata.id":"/redfish/v1/Managers/iDRAC.Embedded.1/Logs/Lclog/944","@odata.type":"#LogEntry.1.0.0.LogEntry","Created":"2016-12-25T11:13:00-06:00","Description":" Log Entry 944","EntryType":"Oem","Id":"944","Links":{"OriginOfCondition":{"@odata.id":"/redfish/v1/Managers/iDRAC.Embedded.1"}},"Message":"Successfully logged in using root, from 10.6.87.1 and IPMI over LAN.","MessageArgs":["root","10.6.87.1","IPMI over LAN"],"MessageID":"USR0030","Name":" Log Entry 944","OEMRecordFormat":"Dell","Severity":"Ok"},{"@odata.id":"/redfish/v1/Managers/iDRAC.Embedded.1/Logs/Lclog/943","@odata.type":"#LogEntry.1.0.0.LogEntry","Created":"2016-12-25T11:12:12-06:00","Description":" Log Entry 943","EntryType":"Oem","Id":"943","Links":{"OriginOfCondition":{"@odata.id":"/redfish/v1/Managers/iDRAC.Embedded.1"}},"Message":"The session for root from 10.6.87.1 using IPMI over LAN is logged off.","MessageArgs":["root","10.6.87.1","IPMI over LAN"],"MessageID":"USR0032","Name":" Log Entry 943","OEMRecordFormat":"Dell","Severity":"Ok"},{"@odata.id":"/redfish/v1/Managers/iDRAC.Embedded.1/Logs/Lclog/942","@odata.type":"#LogEntry.1.0.0.LogEntry","Created":"2016-12-25T11:12:12-06:00","Description":" Log Entry 942","EntryType":"Oem","Id":"942","Links":{"OriginOfCondition":{"@odata.id":"/redfish/v1/Managers/iDRAC.Embedded.1"}},"Message":"Successfully logged in using root, from 10.6.87.1 and IPMI over LAN.","MessageArgs":["root","10.6.87.1","IPMI over LAN"],"MessageID":"USR0030","Name":" Log Entry 942","OEMRecordFormat":"Dell","Severity":"Ok"},{"@odata.id":"/redfish/v1/Managers/iDRAC.Embedded.1/Logs/Lclog/941","@odata.type":"#LogEntry.1.0.0.LogEntry","Created":"2016-12-25T11:11:25-06:00","Description":" Log Entry 941","EntryType":"Oem","Id":"941","Links":{"OriginOfCondition":{"@odata.id":"/redfish/v1/Managers/iDRAC.Embedded.1"}},"Message":"The session for root from 10.6.87.1 using IPMI over LAN is logged off.","MessageArgs":["root","10.6.87.1","IPMI over LAN"],"MessageID":"USR0032","Name":" Log Entry 941","OEMRecordFormat":"Dell","Severity":"Ok"},{"@odata.id":"/redfish/v1/Managers/iDRAC.Embedded.1/Logs/Lclog/940","@odata.type":"#LogEntry.1.0.0.LogEntry","Created":"2016-12-25T11:11:25-06:00","Description":" Log Entry 940","EntryType":"Oem","Id":"940","Links":{"OriginOfCondition":{"@odata.id":"/redfish/v1/Managers/iDRAC.Embedded.1"}},"Message":"Successfully logged in using root, from 10.6.87.1 and IPMI over LAN.","MessageArgs":["root","10.6.87.1","IPMI over LAN"],"MessageID":"USR0030","Name":" Log Entry 940","OEMRecordFormat":"Dell","Severity":"Ok"},{"@odata.id":"/redfish/v1/Managers/iDRAC.Embedded.1/Logs/Lclog/939","@odata.type":"#LogEntry.1.0.0.LogEntry","Created":"2016-12-25T10:56:49-06:00","Description":" Log Entry 939","EntryType":"Oem","Id":"939","Links":{"OriginOfCondition":{"@odata.id":"/redfish/v1/Managers/iDRAC.Embedded.1"}},"Message":"The session for root from 10.6.87.1 using IPMI over LAN is logged off.","MessageArgs":["root","10.6.87.1","IPMI over LAN"],"MessageID":"USR0032","Name":" Log Entry 939","OEMRecordFormat":"Dell","Severity":"Ok"},{"@odata.id":"/redfish/v1/Managers/iDRAC.Embedded.1/Logs/Lclog/938","@odata.type":"#LogEntry.1.0.0.LogEntry","Created":"2016-12-25T10:56:48-06:00","Description":" Log Entry 938","EntryType":"Oem","Id":"938","Links":{"OriginOfCondition":{"@odata.id":"/redfish/v1/Managers/iDRAC.Embedded.1"}},"Message":"Successfully logged in using root, from 10.6.87.1 and IPMI over LAN.","MessageArgs":["root","10.6.87.1","IPMI over LAN"],"MessageID":"USR0030","Name":" Log Entry 938","OEMRecordFormat":"Dell","Severity":"Ok"},{"@odata.id":"/redfish/v1/Managers/iDRAC.Embedded.1/Logs/Lclog/937","@odata.type":"#LogEntry.1.0.0.LogEntry","Created":"2016-12-25T10:56:47-06:00","Description":" Log Entry 937","EntryType":"Oem","Id":"937","Links":{"OriginOfCondition":{"@odata.id":"/redfish/v1/Managers/iDRAC.Embedded.1"}},"Message":"The session for root from 10.6.87.1 using IPMI over LAN is logged off.","MessageArgs":["root","10.6.87.1","IPMI over LAN"],"MessageID":"USR0032","Name":" Log Entry 937","OEMRecordFormat":"Dell","Severity":"Ok"},{"@odata.id":"/redfish/v1/Managers/iDRAC.Embedded.1/Logs/Lclog/936","@odata.type":"#LogEntry.1.0.0.LogEntry","Created":"2016-12-25T10:56:46-06:00","Description":" Log Entry 936","EntryType":"Oem","Id":"936","Links":{"OriginOfCondition":{"@odata.id":"/redfish/v1/Managers/iDRAC.Embedded.1"}},"Message":"Successfully logged in using root, from 10.6.87.1 and IPMI over LAN.","MessageArgs":["root","10.6.87.1","IPMI over LAN"],"MessageID":"USR0030","Name":" Log Entry 936","OEMRecordFormat":"Dell","Severity":"Ok"},{"@odata.id":"/redfish/v1/Managers/iDRAC.Embedded.1/Logs/Lclog/935","@odata.type":"#LogEntry.1.0.0.LogEntry","Created":"2016-12-25T10:55:46-06:00","Description":" Log Entry 935","EntryType":"Oem","Id":"935","Links":{"OriginOfCondition":{"@odata.id":"/redfish/v1/Managers/iDRAC.Embedded.1"}},"Message":"The session for root from 10.6.87.1 using IPMI over LAN is logged off.","MessageArgs":["root","10.6.87.1","IPMI over LAN"],"MessageID":"USR0032","Name":" Log Entry 935","OEMRecordFormat":"Dell","Severity":"Ok"},{"@odata.id":"/redfish/v1/Managers/iDRAC.Embedded.1/Logs/Lclog/934","@odata.type":"#LogEntry.1.0.0.LogEntry","Created":"2016-12-25T10:55:45-06:00","Description":" Log Entry 934","EntryType":"Oem","Id":"934","Links":{"OriginOfCondition":{"@odata.id":"/redfish/v1/Managers/iDRAC.Embedded.1"}},"Message":"Successfully logged in using root, from 10.6.87.1 and IPMI over LAN.","MessageArgs":["root","10.6.87.1","IPMI over LAN"],"MessageID":"USR0030","Name":" Log Entry 934","OEMRecordFormat":"Dell","Severity":"Ok"},{"@odata.id":"/redfish/v1/Managers/iDRAC.Embedded.1/Logs/Lclog/933","@odata.type":"#LogEntry.1.0.0.LogEntry","Created":"2016-12-25T10:55:44-06:00","Description":" Log Entry 933","EntryType":"Oem","Id":"933","Links":{"OriginOfCondition":{"@odata.id":"/redfish/v1/Managers/iDRAC.Embedded.1"}},"Message":"The session for root from 10.6.87.1 using IPMI over LAN is logged off.","MessageArgs":["root","10.6.87.1","IPMI over LAN"],"MessageID":"USR0032","Name":" Log Entry 933","OEMRecordFormat":"Dell","Severity":"Ok"},{"@odata.id":"/redfish/v1/Managers/iDRAC.Embedded.1/Logs/Lclog/932","@odata.type":"#LogEntry.1.0.0.LogEntry","Created":"2016-12-25T10:55:43-06:00","Description":" Log Entry 932","EntryType":"Oem","Id":"932","Links":{"OriginOfCondition":{"@odata.id":"/redfish/v1/Managers/iDRAC.Embedded.1"}},"Message":"Successfully logged in using root, from 10.6.87.1 and IPMI over LAN.","MessageArgs":["root","10.6.87.1","IPMI over LAN"],"MessageID":"USR0030","Name":" Log Entry 932","OEMRecordFormat":"Dell","Severity":"Ok"},{"@odata.id":"/redfish/v1/Managers/iDRAC.Embedded.1/Logs/Lclog/931","@odata.type":"#LogEntry.1.0.0.LogEntry","Created":"2016-12-25T10:55:05-06:00","Description":" Log Entry 931","EntryType":"Oem","Id":"931","Links":{"OriginOfCondition":{"@odata.id":"/redfish/v1/Managers/iDRAC.Embedded.1"}},"Message":"The session for root from 10.6.87.1 using IPMI over LAN is logged off.","MessageArgs":["root","10.6.87.1","IPMI over LAN"],"MessageID":"USR0032","Name":" Log Entry 931","OEMRecordFormat":"Dell","Severity":"Ok"},{"@odata.id":"/redfish/v1/Managers/iDRAC.Embedded.1/Logs/Lclog/930","@odata.type":"#LogEntry.1.0.0.LogEntry","Created":"2016-12-25T10:55:04-06:00","Description":" Log Entry 930","EntryType":"Oem","Id":"930","Links":{"OriginOfCondition":{"@odata.id":"/redfish/v1/Managers/iDRAC.Embedded.1"}},"Message":"Successfully logged in using root, from 10.6.87.1 and IPMI over LAN.","MessageArgs":["root","10.6.87.1","IPMI over LAN"],"MessageID":"USR0030","Name":" Log Entry 930","OEMRecordFormat":"Dell","Severity":"Ok"},{"@odata.id":"/redfish/v1/Managers/iDRAC.Embedded.1/Logs/Lclog/929","@odata.type":"#LogEntry.1.0.0.LogEntry","Created":"2016-12-25T10:53:43-06:00","Description":" Log Entry 929","EntryType":"Oem","Id":"929","Links":{"OriginOfCondition":{"@odata.id":"/redfish/v1/Managers/iDRAC.Embedded.1"}},"Message":"The session for root from 10.6.87.1 using IPMI over LAN is logged off.","MessageArgs":["root","10.6.87.1","IPMI over LAN"],"MessageID":"USR0032","Name":" Log Entry 929","OEMRecordFormat":"Dell","Severity":"Ok"},{"@odata.id":"/redfish/v1/Managers/iDRAC.Embedded.1/Logs/Lclog/928","@odata.type":"#LogEntry.1.0.0.LogEntry","Created":"2016-12-25T10:53:42-06:00","Description":" Log Entry 928","EntryType":"Oem","Id":"928","Links":{"OriginOfCondition":{"@odata.id":"/redfish/v1/Managers/iDRAC.Embedded.1"}},"Message":"Successfully logged in using root, from 10.6.87.1 and IPMI over LAN.","MessageArgs":["root","10.6.87.1","IPMI over LAN"],"MessageID":"USR0030","Name":" Log Entry 928","OEMRecordFormat":"Dell","Severity":"Ok"},{"@odata.id":"/redfish/v1/Managers/iDRAC.Embedded.1/Logs/Lclog/927","@odata.type":"#LogEntry.1.0.0.LogEntry","Created":"2016-12-25T08:56:15-06:00","Description":" Log Entry 927","EntryType":"Oem","Id":"927","Links":{"OriginOfCondition":{"@odata.id":"/redfish/v1/Managers/iDRAC.Embedded.1"}},"Message":"The session for root from 10.6.87.1 using IPMI over LAN is logged off.","MessageArgs":["root","10.6.87.1","IPMI over LAN"],"MessageID":"USR0032","Name":" Log Entry 927","OEMRecordFormat":"Dell","Severity":"Ok"},{"@odata.id":"/redfish/v1/Managers/iDRAC.Embedded.1/Logs/Lclog/926","@odata.type":"#LogEntry.1.0.0.LogEntry","Created":"2016-12-25T08:56:15-06:00","Description":" Log Entry 926","EntryType":"Oem","Id":"926","Links":{"OriginOfCondition":{"@odata.id":"/redfish/v1/Managers/iDRAC.Embedded.1"}},"Message":"Successfully logged in using root, from 10.6.87.1 and IPMI over LAN.","MessageArgs":["root","10.6.87.1","IPMI over LAN"],"MessageID":"USR0030","Name":" Log Entry 926","OEMRecordFormat":"Dell","Severity":"Ok"},{"@odata.id":"/redfish/v1/Managers/iDRAC.Embedded.1/Logs/Lclog/925","@odata.type":"#LogEntry.1.0.0.LogEntry","Created":"2016-12-25T08:56:15-06:00","Description":" Log Entry 925","EntryType":"Oem","Id":"925","Links":{"OriginOfCondition":{"@odata.id":"/redfish/v1/Managers/iDRAC.Embedded.1"}},"Message":"The session for root from 10.6.87.1 using IPMI over LAN is logged off.","MessageArgs":["root","10.6.87.1","IPMI over LAN"],"MessageID":"USR0032","Name":" Log Entry 925","OEMRecordFormat":"Dell","Severity":"Ok"},{"@odata.id":"/redfish/v1/Managers/iDRAC.Embedded.1/Logs/Lclog/924","@odata.type":"#LogEntry.1.0.0.LogEntry","Created":"2016-12-25T08:56:15-06:00","Description":" Log Entry 924","EntryType":"Oem","Id":"924","Links":{"OriginOfCondition":{"@odata.id":"/redfish/v1/Managers/iDRAC.Embedded.1"}},"Message":"Successfully logged in using root, from 10.6.87.1 and IPMI over LAN.","MessageArgs":["root","10.6.87.1","IPMI over LAN"],"MessageID":"USR0030","Name":" Log Entry 924","OEMRecordFormat":"Dell","Severity":"Ok"}],"Name":"Log Entry Collection"}
