{"@odata.context":"/redfish/v1/$metadata#Managers/Members/iDRAC.Embedded.1/LogServices/Members/Lclog/Entries/$entity","@odata.count":2433,"@odata.id":"/redfish/v1/Managers/iDRAC.Embedded.1/Logs/Lclog","@odata.nextLink":"/redfish/v1/Managers/iDRAC.Embedded.1/Logs/Lclog?$skip=50","@odata.type":"#LogEntryCollection.LogEntryCollection","Description":"LC Logs for this manager","Members":[{"@odata.id":"/redfish/v1/Managers/iDRAC.Embedded.1/Logs/Lclog/2433","@odata.type":"#LogEntry.1.0.0.LogEntry","Created":"1999-12-31T20:50:09-06:00","Description":" Log Entry 2433","EntryType":"Oem","Id":"2433","Links":{"OriginOfCondition":{"@odata.id":"/redfish/v1/Managers/iDRAC.Embedded.1"}},"Message":"Successfully logged in using root, from 10.208.65.241 and REDFISH.","MessageArgs":["root","10.208.65.241","REDFISH"],"MessageID":"USR0030","Name":" Log Entry 2433","OEMRecordFormat":"Dell","Severity":"Ok"},{"@odata.id":"/redfish/v1/Managers/iDRAC.Embedded.1/Logs/Lclog/2432","@odata.type":"#LogEntry.1.0.0.LogEntry","Created":"1999-12-31T20:44:38-06:00","Description":" Log Entry 2432","EntryType":"Oem","Id":"2432","Links":{"OriginOfCondition":{"@odata.id":"/redfish/v1/Managers/iDRAC.Embedded.1"}},"Message":"The session for root from 10.208.65.241 using GUI is logged off.","MessageArgs":["root","10.208.65.241","GUI"],"MessageID":"USR0032","Name":" Log Entry 2432","OEMRecordFormat":"Dell","Severity":"Ok"},{"@odata.id":"/redfish/v1/Managers/iDRAC.Embedded.1/Logs/Lclog/2431","@odata.type":"#LogEntry.1.0.0.LogEntry","Created":"1999-12-31T20:44:38-06:00","Description":" Log Entry 2431","EntryType":"Oem","Id":"2431","Message":"The previous log entry was repeated 37 times.","MessageArgs":["37"],"MessageID":"LOG007","Name":" Log Entry 2431","OEMRecordFormat":"Dell","Severity":"Ok"},{"@odata.id":"/redfish/v1/Managers/iDRAC.Embedded.1/Logs/Lclog/2430","@odata.type":"#LogEntry.1.0.0.LogEntry","Created":"1999-12-31T20:40:56-06:00","Description":" Log Entry 2430","EntryType":"Oem","Id":"2430","Links":{"OriginOfCondition":{"@odata.id":"/redfish/v1/Managers/iDRAC.Embedded.1"}},"Message":"Successfully logged in using root, from 10.208.65.241 and REDFISH.","MessageArgs":["root","10.208.65.241","REDFISH"],"MessageID":"USR0030","Name":" Log Entry 2430","OEMRecordFormat":"Dell","Severity":"Ok"},{"@odata.id":"/redfish/v1/Managers/iDRAC.Embedded.1/Logs/Lclog/2429","@odata.type":"#LogEntry.1.0.0.LogEntry","Created":"1999-12-31T20:40:50-06:00","Description":" Log Entry 2429","EntryType":"Oem","Id":"2429","Links":{"OriginOfCondition":{"@odata.id":"/redfish/v1/Managers/iDRAC.Embedded.1"}},"Message":"Successfully logged in using root, from 10.208.65.241 and GUI.","MessageArgs":["root","10.208.65.241","GUI"],"MessageID":"USR0030","Name":" Log Entry 2429","OEMRecordFormat":"Dell","Severity":"Ok"},{"@odata.id":"/redfish/v1/Managers/iDRAC.Embedded.1/Logs/Lclog/2428","@odata.type":"#LogEntry.1.0.0.LogEntry","Created":"1999-12-31T20:40:50-06:00","Description":" Log Entry 2428","EntryType":"Oem","Id":"2428","Message":"The previous log entry was repeated 180 times.","MessageArgs":["180"],"MessageID":"LOG007","Name":" Log Entry 2428","OEMRecordFormat":"Dell","Severity":"Ok"},{"@odata.id":"/redfish/v1/Managers/iDRAC.Embedded.1/Logs/Lclog/2427","@odata.type":"#LogEntry.1.0.0.LogEntry","Created":"1999-12-31T18:40:34-06:00","Description":" Log Entry 2427","EntryType":"Oem","Id":"2427","Links":{"OriginOfCondition":{"@odata.id":"/redfish/v1/Managers/iDRAC.Embedded.1"}},"Message":"Successfully logged in using root, from 10.208.65.241 and REDFISH.","MessageArgs":["root","10.208.65.241","REDFISH"],"MessageID":"USR0030","Name":" Log Entry 2427","OEMRecordFormat":"Dell","Severity":"Ok"},{"@odata.id":"/redfish/v1/Managers/iDRAC.Embedded.1/Logs/Lclog/2426","@odata.type":"#LogEntry.1.0.0.LogEntry","Created":"1999-12-31T18:38:22-06:00","Description":" Log Entry 2426","EntryType":"Oem","Id":"2426","Links":{"OriginOfCondition":{"@odata.id":"/redfish/v1/Managers/iDRAC.Embedded.1"}},"Message":"The session for root from 10.208.65.241 using REDFISH is logged off.","MessageArgs":["root","10.208.65.241","REDFISH"],"MessageID":"USR0032","Name":" Log Entry 2426","OEMRecordFormat":"Dell","Severity":"Ok"},{"@odata.id":"/redfish/v1/Managers/iDRAC.Embedded.1/Logs/Lclog/2425","@odata.type":"#LogEntry.1.0.0.LogEntry","Created":"1999-12-31T18:38:22-06:00","Description":" Log Entry 2425","EntryType":"Oem","Id":"2425","Message":"The previous log entry was repeated 5 times.","MessageArgs":["5"],"MessageID":"LOG007","Name":" Log Entry 2425","OEMRecordFormat":"Dell","Severity":"Ok"},{"@odata.id":"/redfish/v1/Managers/iDRAC.Embedded.1/Logs/Lclog/2424","@odata.type":"#LogEntry.1.0.0.LogEntry","Created":"1999-12-31T18:36:04-06:00","Description":" Log Entry 2424","EntryType":"Oem","Id":"2424","Links":{"OriginOfCondition":{"@odata.id":"/redfish/v1/Managers/iDRAC.Embedded.1"}},"Message":"Successfully logged in using root, from 10.208.65.241 and REDFISH.","MessageArgs":["root","10.208.65.241","REDFISH"],"MessageID":"USR0030","Name":" Log Entry 2424","OEMRecordFormat":"Dell","Severity":"Ok"},{"@odata.id":"/redfish/v1/Managers/iDRAC.Embedded.1/Logs/Lclog/2423","@odata.type":"#LogEntry.1.0.0.LogEntry","Created":"1999-12-31T18:07:56-06:00","Description":" Log Entry 2423","EntryType":"Oem","Id":"2423","Message":"The previous log entry was repeated 3 times.","MessageArgs":["3"],"MessageID":"LOG007","Name":" Log Entry 2423","OEMRecordFormat":"Dell","Severity":"Ok"},{"@odata.id":"/redfish/v1/Managers/iDRAC.Embedded.1/Logs/Lclog/2422","@odata.type":"#LogEntry.1.0.0.LogEntry","Created":"1999-12-31T18:05:59-06:00","Description":" Log Entry 2422","EntryType":"Oem","Id":"2422","Links":{"OriginOfCondition":{"@odata.id":"/redfish/v1/Managers/iDRAC.Embedded.1#HostPowerCtrl"}},"Message":"System CPU Resetting.","MessageID":"SYS1003","Name":" Log Entry 2422","OEMRecordFormat":"Dell","Severity":"Ok"},{"@odata.id":"/redfish/v1/Managers/iDRAC.Embedded.1/Logs/Lclog/2421","@odata.type":"#LogEntry.1.0.0.LogEntry","Created":"1999-12-31T18:03:17-06:00","Description":" Log Entry 2421","EntryType":"Oem","Id":"2421","Links":{"OriginOfCondition":{"@odata.id":"/redfish/v1/Systems/System.Embedded.1"}},"Message":"New PCI card(s) have been detected in the system. Fan speeds may have changed to add additional cooling to the cards.","MessageID":"PCI3018","Name":" Log Entry 2421","OEMRecordFormat":"Dell","Severity":"Ok"},{"@odata.id":"/redfish/v1/Managers/iDRAC.Embedded.1/Logs/Lclog/2420","@odata.type":"#LogEntry.1.0.0.LogEntry","Created":"1999-12-31T18:02:27-06:00","Description":" Log Entry 2420","EntryType":"Oem","Id":"2420","Message":"The iDRAC IP Address changed from 0.0.0.0 to 10.208.62.106.","MessageArgs":["0.0.0.0","10.208.62.106"],"MessageID":"IPA0100","Name":" Log Entry 2420","OEMRecordFormat":"Dell","Severity":"Ok"},{"@odata.id":"/redfish/v1/Managers/iDRAC.Embedded.1/Logs/Lclog/2419","@odata.type":"#LogEntry.1.0.0.LogEntry","Created":"1999-12-31T18:02:17-06:00","Description":" Log Entry 2419","EntryType":"Oem","Id":"2419","Links":{"OriginOfCondition":{"@odata.id":"/redfish/v1/Chassis/System.Embedded.1/Sensors/PowerSupplies/PSU.Slot.2"}},"Message":"The power input for power supply 2 is lost.","MessageArgs":["2"],"MessageID":"PSU0003","Name":" Log Entry 2419","OEMRecordFormat":"Dell","Severity":"Critical"},{"@odata.id":"/redfish/v1/Managers/iDRAC.Embedded.1/Logs/Lclog/2418","@odata.type":"#LogEntry.1.0.0.LogEntry","Created":"1999-12-31T18:02:15-06:00","Description":" Log Entry 2418","EntryType":"Oem","Id":"2418","Links":{"OriginOfCondition":{"@odata.id":"/redfish/v1/Managers/iDRAC.Embedded.1"}},"Message":"Auto Discovery feature disabled.","MessageID":"DIS002","Name":" Log Entry 2418","OEMRecordFormat":"Dell","Severity":"Ok"},{"@odata.id":"/redfish/v1/Managers/iDRAC.Embedded.1/Logs/Lclog/2417","@odata.type":"#LogEntry.1.0.0.LogEntry","Created":"1999-12-31T18:00:37-06:00","Description":" Log Entry 2417","EntryType":"Oem","Id":"2417","Links":{"OriginOfCondition":{"@odata.id":"/redfish/v1/Managers/iDRAC.Embedded.1"}},"Message":"Power Supply 2: Status = 0x2840, IOUT = 0x0, VOUT= 0x0, TEMP= 0x0, FAN = 0x0, INPUT= 0x8","MessageArgs":["2","2840","0","0","0","0","8"],"MessageID":"PSU0800","Name":" Log Entry 2417","OEMRecordFormat":"Dell","Severity":"Ok"},{"@odata.id":"/redfish/v1/Managers/iDRAC.Embedded.1/Logs/Lclog/2416","@odata.type":"#LogEntry.1.0.0.LogEntry","Created":"1999-12-31T18:00:32-06:00","Description":" Log Entry 2416","EntryType":"Oem","Id":"2416","Links":{"OriginOfCondition":{"@odata.id":"/redfish/v1/Managers/iDRAC.Embedded.1"}},"Message":"Power supply capacity alert disabled.","MessageID":"PWR2404","Name":" Log Entry 2416","OEMRecordFormat":"Dell","Severity":"Ok"},{"@odata.id":"/redfish/v1/Managers/iDRAC.Embedded.1/Logs/Lclog/2415","@odata.type":"#LogEntry.1.0.0.LogEntry","Created":"1999-12-31T18:00:28-06:00","Description":" Log Entry 2415","EntryType":"Oem","Id":"2415","Links":{"OriginOfCondition":{"@odata.id":"/redfish/v1/Managers/iDRAC.Embedded.1"}},"Message":"Power Supply 2: Status = 0x00, IOUT = 0x0, VOUT= 0x0, TEMP= 0x0, FAN = 0x0, INPUT= 0x0","MessageArgs":["2","00","0","0","0","0","0"],"MessageID":"PSU0800","Name":" Log Entry 2415","OEMRecordFormat":"Dell","Severity":"Ok"},{"@odata.id":"/redfish/v1/Managers/iDRAC.Embedded.1/Logs/Lclog/2414","@odata.type":"#LogEntry.1.0.0.LogEntry","Created":"1999-12-31T18:00:28-06:00","Description":" Log Entry 2414","EntryType":"Oem","Id":"2414","Links":{"OriginOfCondition":{"@odata.id":"/redfish/v1/Managers/iDRAC.Embedded.1"}},"Message":"Power Supply 1: Status = 0x00, IOUT = 0x0, VOUT= 0x0, TEMP= 0x0, FAN = 0x0, INPUT= 0x0","MessageArgs":["1","00","0","0","0","0","0"],"MessageID":"PSU0800","Name":" Log Entry 2414","OEMRecordFormat":"Dell","Severity":"Ok"},{"@odata.id":"/redfish/v1/Managers/iDRAC.Embedded.1/Logs/Lclog/2413","@odata.type":"#LogEntry.1.0.0.LogEntry","Created":"1999-12-31T18:04:50-06:00","Description":" Log Entry 2413","EntryType":"Oem","Id":"2413","Links":{"OriginOfCondition":{"@odata.id":"/redfish/v1/Managers/iDRAC.Embedded.1#HostPowerCtrl"}},"Message":"System CPU Resetting.","MessageID":"SYS1003","Name":" Log Entry 2413","OEMRecordFormat":"Dell","Severity":"Ok"},{"@odata.id":"/redfish/v1/Managers/iDRAC.Embedded.1/Logs/Lclog/2412","@odata.type":"#LogEntry.1.0.0.LogEntry","Created":"1999-12-31T18:04:50-06:00","Description":" Log Entry 2412","EntryType":"Oem","Id":"2412","Links":{"OriginOfCondition":{"@odata.id":"/redfish/v1/Managers/iDRAC.Embedded.1#HostPowerCtrl"}},"Message":"System is turning off.","MessageID":"SYS1001","Name":" Log Entry 2412","OEMRecordFormat":"Dell","Severity":"Ok"},{"@odata.id":"/redfish/v1/Managers/iDRAC.Embedded.1/Logs/Lclog/2411","@odata.type":"#LogEntry.1.0.0.LogEntry","Created":"1999-12-31T18:03:42-06:00","Description":" Log Entry 2411","EntryType":"Oem","Id":"2411","Links":{"OriginOfCondition":{"@odata.id":""}},"Message":"OEM software event.","MessageID":"SEL9901","Name":" Log Entry 2411","OEMRecordFormat":"Dell","Severity":"Ok"},{"@odata.id":"/redfish/v1/Managers/iDRAC.Embedded.1/Logs/Lclog/2410","@odata.type":"#LogEntry.1.0.0.LogEntry","Created":"1999-12-31T18:03:38-06:00","Description":" Log Entry 2410","EntryType":"Oem","Id":"2410","Links":{"OriginOfCondition":{"@odata.id":""}},"Message":"C: boot completed.","MessageID":"OSE1002","Name":" Log Entry 2410","OEMRecordFormat":"Dell","Severity":"Ok"},{"@odata.id":"/redfish/v1/Managers/iDRAC.Embedded.1/Logs/Lclog/2409","@odata.type":"#LogEntry.1.0.0.LogEntry","Created":"1999-12-31T18:03:23-06:00","Description":" Log Entry 2409","EntryType":"Oem","Id":"2409","Links":{"OriginOfCondition":{"@odata.id":"/redfish/v1/Systems/System.Embedded.1"}},"Message":"New PCI card(s) have been detected in the system. Fan speeds may have changed to add additional cooling to the cards.","MessageID":"PCI3018","Name":" Log Entry 2409","OEMRecordFormat":"Dell","Severity":"Ok"},{"@odata.id":"/redfish/v1/Managers/iDRAC.Embedded.1/Logs/Lclog/2408","@odata.type":"#LogEntry.1.0.0.LogEntry","Created":"1999-12-31T18:02:15-06:00","Description":" Log Entry 2408","EntryType":"Oem","Id":"2408","Links":{"OriginOfCondition":{"@odata.id":"/redfish/v1/Chassis/System.Embedded.1/Sensors/PowerSupplies/PSU.Slot.2"}},"Message":"The power input for power supply 2 is lost.","MessageArgs":["2"],"MessageID":"PSU0003","Name":" Log Entry 2408","OEMRecordFormat":"Dell","Severity":"Critical"},{"@odata.id":"/redfish/v1/Managers/iDRAC.Embedded.1/Logs/Lclog/2407","@odata.type":"#LogEntry.1.0.0.LogEntry","Created":"1999-12-31T18:02:13-06:00","Description":" Log Entry 2407","EntryType":"Oem","Id":"2407","Links":{"OriginOfCondition":{"@odata.id":"/redfish/v1/Managers/iDRAC.Embedded.1"}},"Message":"Auto Discovery feature disabled.","MessageID":"DIS002","Name":" Log Entry 2407","OEMRecordFormat":"Dell","Severity":"Ok"},{"@odata.id":"/redfish/v1/Managers/iDRAC.Embedded.1/Logs/Lclog/2406","@odata.type":"#LogEntry.1.0.0.LogEntry","Created":"1999-12-31T18:00:41-06:00","Description":" Log Entry 2406","EntryType":"Oem","Id":"2406","Links":{"OriginOfCondition":{"@odata.id":"/redfish/v1/Managers/iDRAC.Embedded.1"}},"Message":"Power Supply 2: Status = 0x2842, IOUT = 0x0, VOUT= 0x0, TEMP= 0x0, FAN = 0x0, INPUT= 0x8","MessageArgs":["2","2842","0","0","0","0","8"],"MessageID":"PSU0800","Name":" Log Entry 2406","OEMRecordFormat":"Dell","Severity":"Ok"},{"@odata.id":"/redfish/v1/Managers/iDRAC.Embedded.1/Logs/Lclog/2405","@odata.type":"#LogEntry.1.0.0.LogEntry","Created":"1999-12-31T18:00:35-06:00","Description":" Log Entry 2405","EntryType":"Oem","Id":"2405","Links":{"OriginOfCondition":{"@odata.id":"/redfish/v1/Managers/iDRAC.Embedded.1"}},"Message":"Power supply capacity alert disabled.","MessageID":"PWR2404","Name":" Log Entry 2405","OEMRecordFormat":"Dell","Severity":"Ok"},{"@odata.id":"/redfish/v1/Managers/iDRAC.Embedded.1/Logs/Lclog/2404","@odata.type":"#LogEntry.1.0.0.LogEntry","Created":"1999-12-31T18:00:29-06:00","Description":" Log Entry 2404","EntryType":"Oem","Id":"2404","Links":{"OriginOfCondition":{"@odata.id":"/redfish/v1/Managers/iDRAC.Embedded.1"}},"Message":"Power Supply 2: Status = 0x00, IOUT = 0x0, VOUT= 0x0, TEMP= 0x0, FAN = 0x0, INPUT= 0x0","MessageArgs":["2","00","0","0","0","0","0"],"MessageID":"PSU0800","Name":" Log Entry 2404","OEMRecordFormat":"Dell","Severity":"Ok"},{"@odata.id":"/redfish/v1/Managers/iDRAC.Embedded.1/Logs/Lclog/2403","@odata.type":"#LogEntry.1.0.0.LogEntry","Created":"1999-12-31T18:00:29-06:00","Description":" Log Entry 2403","EntryType":"Oem","Id":"2403","Links":{"OriginOfCondition":{"@odata.id":"/redfish/v1/Managers/iDRAC.Embedded.1"}},"Message":"Power Supply 1: Status = 0x00, IOUT = 0x0, VOUT= 0x0, TEMP= 0x0, FAN = 0x0, INPUT= 0x0","MessageArgs":["1","00","0","0","0","0","0"],"MessageID":"PSU0800","Name":" Log Entry 2403","OEMRecordFormat":"Dell","Severity":"Ok"},{"@odata.id":"/redfish/v1/Managers/iDRAC.Embedded.1/Logs/Lclog/2402","@odata.type":"#LogEntry.1.0.0.LogEntry","Created":"1999-12-31T18:02:28-06:00","Description":" Log Entry 2402","EntryType":"Oem","Id":"2402","Links":{"OriginOfCondition":{"@odata.id":"/redfish/v1/Managers/iDRAC.Embedded.1#HostPowerCtrl"}},"Message":"System CPU Resetting.","MessageID":"SYS1003","Name":" Log Entry 2402","OEMRecordFormat":"Dell","Severity":"Ok"},{"@odata.id":"/redfish/v1/Managers/iDRAC.Embedded.1/Logs/Lclog/2401","@odata.type":"#LogEntry.1.0.0.LogEntry","Created":"1999-12-31T18:02:28-06:00","Description":" Log Entry 2401","EntryType":"Oem","Id":"2401","Links":{"OriginOfCondition":{"@odata.id":"/redfish/v1/Managers/iDRAC.Embedded.1#HostPowerCtrl"}},"Message":"System is turning off.","MessageID":"SYS1001","Name":" Log Entry 2401","OEMRecordFormat":"Dell","Severity":"Ok"},{"@odata.id":"/redfish/v1/Managers/iDRAC.Embedded.1/Logs/Lclog/2400","@odata.type":"#LogEntry.1.0.0.LogEntry","Created":"1999-12-31T18:02:14-06:00","Description":" Log Entry 2400","EntryType":"Oem","Id":"2400","Links":{"OriginOfCondition":{"@odata.id":"/redfish/v1/Chassis/System.Embedded.1/Sensors/PowerSupplies/PSU.Slot.2"}},"Message":"The power input for power supply 2 is lost.","MessageArgs":["2"],"MessageID":"PSU0003","Name":" Log Entry 2400","OEMRecordFormat":"Dell","Severity":"Critical"},{"@odata.id":"/redfish/v1/Managers/iDRAC.Embedded.1/Logs/Lclog/2399","@odata.type":"#LogEntry.1.0.0.LogEntry","Created":"1999-12-31T18:02:13-06:00","Description":" Log Entry 2399","EntryType":"Oem","Id":"2399","Links":{"OriginOfCondition":{"@odata.id":"/redfish/v1/Managers/iDRAC.Embedded.1"}},"Message":"Auto Discovery feature disabled.","MessageID":"DIS002","Name":" Log Entry 2399","OEMRecordFormat":"Dell","Severity":"Ok"},{"@odata.id":"/redfish/v1/Managers/iDRAC.Embedded.1/Logs/Lclog/2398","@odata.type":"#LogEntry.1.0.0.LogEntry","Created":"1999-12-31T18:00:39-06:00","Description":" Log Entry 2398","EntryType":"Oem","Id":"2398","Links":{"OriginOfCondition":{"@odata.id":"/redfish/v1/Managers/iDRAC.Embedded.1"}},"Message":"Power Supply 2: Status = 0x2842, IOUT = 0x0, VOUT= 0x0, TEMP= 0x0, FAN = 0x0, INPUT= 0x8","MessageArgs":["2","2842","0","0","0","0","8"],"MessageID":"PSU0800","Name":" Log Entry 2398","OEMRecordFormat":"Dell","Severity":"Ok"},{"@odata.id":"/redfish/v1/Managers/iDRAC.Embedded.1/Logs/Lclog/2397","@odata.type":"#LogEntry.1.0.0.LogEntry","Created":"1999-12-31T18:00:35-06:00","Description":" Log Entry 2397","EntryType":"Oem","Id":"2397","Links":{"OriginOfCondition":{"@odata.id":"/redfish/v1/Managers/iDRAC.Embedded.1"}},"Message":"Power supply capacity alert disabled.","MessageID":"PWR2404","Name":" Log Entry 2397","OEMRecordFormat":"Dell","Severity":"Ok"},{"@odata.id":"/redfish/v1/Managers/iDRAC.Embedded.1/Logs/Lclog/2396","@odata.type":"#LogEntry.1.0.0.LogEntry","Created":"1999-12-31T18:00:30-06:00","Description":" Log Entry 2396","EntryType":"Oem","Id":"2396","Links":{"OriginOfCondition":{"@odata.id":"/redfish/v1/Managers/iDRAC.Embedded.1"}},"Message":"Power Supply 2: Status = 0x00, IOUT = 0x0, VOUT= 0x0, TEMP= 0x0, FAN = 0x0, INPUT= 0x0","MessageArgs":["2","00","0","0","0","0","0"],"MessageID":"PSU0800","Name":" Log Entry 2396","OEMRecordFormat":"Dell","Severity":"Ok"},{"@odata.id":"/redfish/v1/Managers/iDRAC.Embedded.1/Logs/Lclog/2395","@odata.type":"#LogEntry.1.0.0.LogEntry","Created":"1999-12-31T18:00:29-06:00","Description":" Log Entry 2395","EntryType":"Oem","Id":"2395","Links":{"OriginOfCondition":{"@odata.id":"/redfish/v1/Managers/iDRAC.Embedded.1"}},"Message":"Power Supply 1: Status = 0x00, IOUT = 0x0, VOUT= 0x0, TEMP= 0x0, FAN = 0x0, INPUT= 0x0","MessageArgs":["1","00","0","0","0","0","0"],"MessageID":"PSU0800","Name":" Log Entry 2395","OEMRecordFormat":"Dell","Severity":"Ok"},{"@odata.id":"/redfish/v1/Managers/iDRAC.Embedded.1/Logs/Lclog/2394","@odata.type":"#LogEntry.1.0.0.LogEntry","Created":"2000-01-02T14:36:32-06:00","Description":" Log Entry 2394","EntryType":"Oem","Id":"2394","Links":{"OriginOfCondition":{"@odata.id":"/redfish/v1/Managers/iDRAC.Embedded.1#HostPowerCtrl"}},"Message":"System CPU Resetting.","MessageID":"SYS1003","Name":" Log Entry 2394","OEMRecordFormat":"Dell","Severity":"Ok"},{"@odata.id":"/redfish/v1/Managers/iDRAC.Embedded.1/Logs/Lclog/2393","@odata.type":"#LogEntry.1.0.0.LogEntry","Created":"2000-01-02T14:36:32-06:00","Description":" Log Entry 2393","EntryType":"Oem","Id":"2393","Links":{"OriginOfCondition":{"@odata.id":"/redfish/v1/Managers/iDRAC.Embedded.1#HostPowerCtrl"}},"Message":"System is turning off.","MessageID":"SYS1001","Name":" Log Entry 2393","OEMRecordFormat":"Dell","Severity":"Ok"},{"@odata.id":"/redfish/v1/Managers/iDRAC.Embedded.1/Logs/Lclog/2392","@odata.type":"#LogEntry.1.0.0.LogEntry","Created":"2000-01-01T01:27:17-06:00","Description":" Log Entry 2392","EntryType":"Oem","Id":"2392","Links":{"OriginOfCondition":{"@odata.id":""}},"Message":"OEM software event.","MessageID":"SEL9901","Name":" Log Entry 2392","OEMRecordFormat":"Dell","Severity":"Ok"},{"@odata.id":"/redfish/v1/Managers/iDRAC.Embedded.1/Logs/Lclog/2391","@odata.type":"#LogEntry.1.0.0.LogEntry","Created":"2000-01-01T01:27:13-06:00","Description":" Log Entry 2391","EntryType":"Oem","Id":"2391","Links":{"OriginOfCondition":{"@odata.id":""}},"Message":"C: boot completed.","MessageID":"OSE1002","Name":" Log Entry 2391","OEMRecordFormat":"Dell","Severity":"Ok"},{"@odata.id":"/redfish/v1/Managers/iDRAC.Embedded.1/Logs/Lclog/2390","@odata.type":"#LogEntry.1.0.0.LogEntry","Created":"2000-01-01T01:27:13-06:00","Description":" Log Entry 2390","EntryType":"Oem","Id":"2390","Message":"The previous log entry was repeated 1 times.","MessageArgs":["1"],"MessageID":"LOG007","Name":" Log Entry 2390","OEMRecordFormat":"Dell","Severity":"Ok"},{"@odata.id":"/redfish/v1/Managers/iDRAC.Embedded.1/Logs/Lclog/2389","@odata.type":"#LogEntry.1.0.0.LogEntry","Created":"2000-01-01T01:23:36-06:00","Description":" Log Entry 2389","EntryType":"Oem","Id":"2389","Links":{"OriginOfCondition":{"@odata.id":"/redfish/v1/Managers/iDRAC.Embedded.1#HostPowerCtrl"}},"Message":"System CPU Resetting.","MessageID":"SYS1003","Name":" Log Entry 2389","OEMRecordFormat":"Dell","Severity":"Ok"},{"@odata.id":"/redfish/v1/Managers/iDRAC.Embedded.1/Logs/Lclog/2388","@odata.type":"#LogEntry.1.0.0.LogEntry","Created":"2000-01-01T01:23:34-06:00","Description":" Log Entry 2388","EntryType":"Oem","Id":"2388","Links":{"OriginOfCondition":{"@odata.id":"/redfish/v1/Managers/iDRAC.Embedded.1#HostPowerCtrl"}},"Message":"System is turning on.","MessageID":"SYS1000","Name":" Log Entry 2388","OEMRecordFormat":"Dell","Severity":"Ok"},{"@odata.id":"/redfish/v1/Managers/iDRAC.Embedded.1/Logs/Lclog/2387","@odata.type":"#LogEntry.1.0.0.LogEntry","Created":"2000-01-01T01:23:27-06:00","Description":" Log Entry 2387","EntryType":"Oem","Id":"2387","Links":{"OriginOfCondition":{"@odata.id":"/redfish/v1/Managers/iDRAC.Embedded.1"}},"Message":"The session for root from 10.208.65.241 using REDFISH is logged off.","MessageArgs":["root","10.208.65.241","REDFISH"],"MessageID":"USR0032","Name":" Log Entry 2387","OEMRecordFormat":"Dell","Severity":"Ok"},{"@odata.id":"/redfish/v1/Managers/iDRAC.Embedded.1/Logs/Lclog/2386","@odata.type":"#LogEntry.1.0.0.LogEntry","Created":"2000-01-01T01:23:26-06:00","Description":" Log Entry 2386","EntryType":"Oem","Id":"2386","Links":{"OriginOfCondition":{"@odata.id":"/redfish/v1/Managers/iDRAC.Embedded.1#HostPowerCtrl"}},"Message":"System CPU Resetting.","MessageID":"SYS1003","Name":" Log Entry 2386","OEMRecordFormat":"Dell","Severity":"Ok"},{"@odata.id":"/redfish/v1/Managers/iDRAC.Embedded.1/Logs/Lclog/2385","@odata.type":"#LogEntry.1.0.0.LogEntry","Created":"2000-01-01T01:23:26-06:00","Description":" Log Entry 2385","EntryType":"Oem","Id":"2385","Links":{"OriginOfCondition":{"@odata.id":"/redfish/v1/Managers/iDRAC.Embedded.1#HostPowerCtrl"}},"Message":"System is turning off.","MessageID":"SYS1001","Name":" Log Entry 2385","OEMRecordFormat":"Dell","Severity":"Ok"},{"@odata.id":"/redfish/v1/Managers/iDRAC.Embedded.1/Logs/Lclog/2384","@odata.type":"#LogEntry.1.0.0.LogEntry","Created":"2000-01-01T01:23:24-06:00","Description":" Log Entry 2384","EntryType":"Oem","Id":"2384","Links":{"OriginOfCondition":{"@odata.id":"/redfish/v1/Systems/System.Embedded.1"}},"Message":"Configuration changes successfully applied to device: DSS7500(Setup 1-1)","MessageArgs":["DSS7500(Setup 1-1)"],"MessageID":"PR6","Name":" Log Entry 2384","OEMRecordFormat":"Dell","Severity":"Ok"}],"Name":"Log Entry Collection"}
