{"@odata.context":"/redfish/v1/$metadata#Managers/Members/iDRAC.Embedded.1/LogServices/Members/Sel/Entries/$entity","@odata.count":156,"@odata.id":"/redfish/v1/Managers/iDRAC.Embedded.1/Logs/Sel","@odata.nextLink":"/redfish/v1/Managers/iDRAC.Embedded.1/Logs/Sel?$skip=50","@odata.type":"#LogEntryCollection.LogEntryCollection","Description":"System Event Logs for this manager","Members":[{"@odata.id":"/redfish/v1/Managers/iDRAC.Embedded.1/Logs/Sel/156","@odata.type":"#LogEntry.1.0.0.LogEntry","Created":"1999-12-31T18:00:37-06:00","Description":" Log Entry 156","EntryCode":"","EntryType":"SEL","Id":"156","Links":{"OriginOfCondition":null},"Message":"The power input for power supply 2 is lost.","MessageID":"3ffff","Name":" Log Entry 156","SensorNumber":99,"SensorType":"Power Supply / Converter","Severity":"Critical"},{"@odata.id":"/redfish/v1/Managers/iDRAC.Embedded.1/Logs/Sel/155","@odata.type":"#LogEntry.1.0.0.LogEntry","Created":"1999-12-31T18:03:38-06:00","Description":" Log Entry 155","EntryCode":"","EntryType":"SEL","Id":"155","Links":{"OriginOfCondition":null},"Message":"OEM software event.","MessageID":"7bf40","Name":" Log Entry 155","SensorNumber":62,"SensorType":"Unknown","Severity":"Ok"},{"@odata.id":"/redfish/v1/Managers/iDRAC.Embedded.1/Logs/Sel/154","@odata.type":"#LogEntry.1.0.0.LogEntry","Created":"1999-12-31T18:03:38-06:00","Description":" Log Entry 154","EntryCode":"","EntryType":"SEL","Id":"154","Links":{"OriginOfCondition":null},"Message":"C: boot completed.","MessageID":"1ffff","Name":" Log Entry 154","SensorNumber":0,"SensorType":"BaseOSBoot/InstallationStatus","Severity":"Ok"},{"@odata.id":"/redfish/v1/Managers/iDRAC.Embedded.1/Logs/Sel/153","@odata.type":"#LogEntry.1.0.0.LogEntry","Created":"1999-12-31T18:00:44-06:00","Description":" Log Entry 153","EntryCode":"","EntryType":"SEL","Id":"153","Links":{"OriginOfCondition":null},"Message":"The power input for power supply 2 is lost.","MessageID":"3ffff","Name":" Log Entry 153","SensorNumber":99,"SensorType":"Power Supply / Converter","Severity":"Critical"},{"@odata.id":"/redfish/v1/Managers/iDRAC.Embedded.1/Logs/Sel/152","@odata.type":"#LogEntry.1.0.0.LogEntry","Created":"1999-12-31T18:00:43-06:00","Description":" Log Entry 152","EntryCode":"","EntryType":"SEL","Id":"152","Links":{"OriginOfCondition":null},"Message":"The power input for power supply 2 is lost.","MessageID":"3ffff","Name":" Log Entry 152","SensorNumber":99,"SensorType":"Power Supply / Converter","Severity":"Critical"},{"@odata.id":"/redfish/v1/Managers/iDRAC.Embedded.1/Logs/Sel/151","@odata.type":"#LogEntry.1.0.0.LogEntry","Created":"2000-01-01T01:27:13-06:00","Description":" Log Entry 151","EntryCode":"","EntryType":"SEL","Id":"151","Links":{"OriginOfCondition":null},"Message":"OEM software event.","MessageID":"49f40","Name":" Log Entry 151","SensorNumber":23,"SensorType":"Unknown","Severity":"Ok"},{"@odata.id":"/redfish/v1/Managers/iDRAC.Embedded.1/Logs/Sel/150","@odata.type":"#LogEntry.1.0.0.LogEntry","Created":"2000-01-01T01:27:13-06:00","Description":" Log Entry 150","EntryCode":"","EntryType":"SEL","Id":"150","Links":{"OriginOfCondition":null},"Message":"C: boot completed.","MessageID":"1ffff","Name":" Log Entry 150","SensorNumber":0,"SensorType":"BaseOSBoot/InstallationStatus","Severity":"Ok"},{"@odata.id":"/redfish/v1/Managers/iDRAC.Embedded.1/Logs/Sel/149","@odata.type":"#LogEntry.1.0.0.LogEntry","Created":"1999-12-31T18:18:24-06:00","Description":" Log Entry 149","EntryCode":"","EntryType":"SEL","Id":"149","Links":{"OriginOfCondition":null},"Message":"OEM software event.","MessageID":"49f40","Name":" Log Entry 149","SensorNumber":149,"SensorType":"Unknown","Severity":"Ok"},{"@odata.id":"/redfish/v1/Managers/iDRAC.Embedded.1/Logs/Sel/148","@odata.type":"#LogEntry.1.0.0.LogEntry","Created":"1999-12-31T18:18:24-06:00","Description":" Log Entry 148","EntryCode":"","EntryType":"SEL","Id":"148","Links":{"OriginOfCondition":null},"Message":"C: boot completed.","MessageID":"1ffff","Name":" Log Entry 148","SensorNumber":0,"SensorType":"BaseOSBoot/InstallationStatus","Severity":"Ok"},{"@odata.id":"/redfish/v1/Managers/iDRAC.Embedded.1/Logs/Sel/147","@odata.type":"#LogEntry.1.0.0.LogEntry","Created":"1999-12-31T18:16:24-06:00","Description":" Log Entry 147","EntryCode":"","EntryType":"SEL","Id":"147","Links":{"OriginOfCondition":null},"Message":"OEM software event.","MessageID":"500","Name":" Log Entry 147","SensorNumber":255,"SensorType":"Unknown","Severity":"Ok"},{"@odata.id":"/redfish/v1/Managers/iDRAC.Embedded.1/Logs/Sel/146","@odata.type":"#LogEntry.1.0.0.LogEntry","Created":"1999-12-31T18:16:24-06:00","Description":" Log Entry 146","EntryCode":"","EntryType":"SEL","Id":"146","Links":{"OriginOfCondition":null},"Message":"An OS graceful shut-down occurred.","MessageID":"3ffff","Name":" Log Entry 146","SensorNumber":0,"SensorType":"OS Stop/Shutdown","Severity":"Ok"},{"@odata.id":"/redfish/v1/Managers/iDRAC.Embedded.1/Logs/Sel/145","@odata.type":"#LogEntry.1.0.0.LogEntry","Created":"1999-12-31T18:07:49-06:00","Description":" Log Entry 145","EntryCode":"","EntryType":"SEL","Id":"145","Links":{"OriginOfCondition":null},"Message":"OEM software event.","MessageID":"49f40","Name":" Log Entry 145","SensorNumber":26,"SensorType":"Unknown","Severity":"Ok"},{"@odata.id":"/redfish/v1/Managers/iDRAC.Embedded.1/Logs/Sel/144","@odata.type":"#LogEntry.1.0.0.LogEntry","Created":"1999-12-31T18:07:49-06:00","Description":" Log Entry 144","EntryCode":"","EntryType":"SEL","Id":"144","Links":{"OriginOfCondition":null},"Message":"C: boot completed.","MessageID":"1ffff","Name":" Log Entry 144","SensorNumber":0,"SensorType":"BaseOSBoot/InstallationStatus","Severity":"Ok"},{"@odata.id":"/redfish/v1/Managers/iDRAC.Embedded.1/Logs/Sel/143","@odata.type":"#LogEntry.1.0.0.LogEntry","Created":"2016-06-06T21:08:49-05:00","Description":" Log Entry 143","EntryCode":"","EntryType":"SEL","Id":"143","Links":{"OriginOfCondition":null},"Message":"OEM software event.","MessageID":"500","Name":" Log Entry 143","SensorNumber":255,"SensorType":"Unknown","Severity":"Ok"},{"@odata.id":"/redfish/v1/Managers/iDRAC.Embedded.1/Logs/Sel/142","@odata.type":"#LogEntry.1.0.0.LogEntry","Created":"2016-06-06T21:08:49-05:00","Description":" Log Entry 142","EntryCode":"","EntryType":"SEL","Id":"142","Links":{"OriginOfCondition":null},"Message":"An OS graceful shut-down occurred.","MessageID":"3ffff","Name":" Log Entry 142","SensorNumber":0,"SensorType":"OS Stop/Shutdown","Severity":"Ok"},{"@odata.id":"/redfish/v1/Managers/iDRAC.Embedded.1/Logs/Sel/141","@odata.type":"#LogEntry.1.0.0.LogEntry","Created":"2016-06-06T20:39:00-05:00","Description":" Log Entry 141","EntryCode":"","EntryType":"SEL","Id":"141","Links":{"OriginOfCondition":null},"Message":"OEM software event.","MessageID":"39f40","Name":" Log Entry 141","SensorNumber":35,"SensorType":"Unknown","Severity":"Ok"},{"@odata.id":"/redfish/v1/Managers/iDRAC.Embedded.1/Logs/Sel/140","@odata.type":"#LogEntry.1.0.0.LogEntry","Created":"2016-06-06T20:39:00-05:00","Description":" Log Entry 140","EntryCode":"","EntryType":"SEL","Id":"140","Links":{"OriginOfCondition":null},"Message":"C: boot completed.","MessageID":"1ffff","Name":" Log Entry 140","SensorNumber":0,"SensorType":"BaseOSBoot/InstallationStatus","Severity":"Ok"},{"@odata.id":"/redfish/v1/Managers/iDRAC.Embedded.1/Logs/Sel/139","@odata.type":"#LogEntry.1.0.0.LogEntry","Created":"2016-06-06T20:31:47-05:00","Description":" Log Entry 139","EntryCode":"","EntryType":"SEL","Id":"139","Links":{"OriginOfCondition":null},"Message":"The power input for power supply 2 is lost.","MessageID":"3ffff","Name":" Log Entry 139","SensorNumber":99,"SensorType":"Power Supply / Converter","Severity":"Critical"},{"@odata.id":"/redfish/v1/Managers/iDRAC.Embedded.1/Logs/Sel/138","@odata.type":"#LogEntry.1.0.0.LogEntry","Created":"2016-06-04T19:02:49-05:00","Description":" Log Entry 138","EntryCode":"","EntryType":"SEL","Id":"138","Links":{"OriginOfCondition":null},"Message":"OEM software event.","MessageID":"500","Name":" Log Entry 138","SensorNumber":255,"SensorType":"Unknown","Severity":"Ok"},{"@odata.id":"/redfish/v1/Managers/iDRAC.Embedded.1/Logs/Sel/137","@odata.type":"#LogEntry.1.0.0.LogEntry","Created":"2016-06-04T19:02:49-05:00","Description":" Log Entry 137","EntryCode":"","EntryType":"SEL","Id":"137","Links":{"OriginOfCondition":null},"Message":"An OS graceful shut-down occurred.","MessageID":"3ffff","Name":" Log Entry 137","SensorNumber":0,"SensorType":"OS Stop/Shutdown","Severity":"Ok"},{"@odata.id":"/redfish/v1/Managers/iDRAC.Embedded.1/Logs/Sel/136","@odata.type":"#LogEntry.1.0.0.LogEntry","Created":"2016-06-04T18:56:50-05:00","Description":" Log Entry 136","EntryCode":"","EntryType":"SEL","Id":"136","Links":{"OriginOfCondition":null},"Message":"The power input for power supply 2 is lost.","MessageID":"3ffff","Name":" Log Entry 136","SensorNumber":99,"SensorType":"Power Supply / Converter","Severity":"Critical"},{"@odata.id":"/redfish/v1/Managers/iDRAC.Embedded.1/Logs/Sel/135","@odata.type":"#LogEntry.1.0.0.LogEntry","Created":"2016-05-29T15:53:19-05:00","Description":" Log Entry 135","EntryCode":"","EntryType":"SEL","Id":"135","Links":{"OriginOfCondition":null},"Message":"OEM software event.","MessageID":"500","Name":" Log Entry 135","SensorNumber":255,"SensorType":"Unknown","Severity":"Ok"},{"@odata.id":"/redfish/v1/Managers/iDRAC.Embedded.1/Logs/Sel/134","@odata.type":"#LogEntry.1.0.0.LogEntry","Created":"2016-05-29T15:53:18-05:00","Description":" Log Entry 134","EntryCode":"","EntryType":"SEL","Id":"134","Links":{"OriginOfCondition":null},"Message":"An OS graceful shut-down occurred.","MessageID":"3ffff","Name":" Log Entry 134","SensorNumber":0,"SensorType":"OS Stop/Shutdown","Severity":"Ok"},{"@odata.id":"/redfish/v1/Managers/iDRAC.Embedded.1/Logs/Sel/133","@odata.type":"#LogEntry.1.0.0.LogEntry","Created":"2016-05-28T18:46:07-05:00","Description":" Log Entry 133","EntryCode":"","EntryType":"SEL","Id":"133","Links":{"OriginOfCondition":null},"Message":"OEM software event.","MessageID":"500","Name":" Log Entry 133","SensorNumber":255,"SensorType":"Unknown","Severity":"Ok"},{"@odata.id":"/redfish/v1/Managers/iDRAC.Embedded.1/Logs/Sel/132","@odata.type":"#LogEntry.1.0.0.LogEntry","Created":"2016-05-28T18:46:07-05:00","Description":" Log Entry 132","EntryCode":"","EntryType":"SEL","Id":"132","Links":{"OriginOfCondition":null},"Message":"An OS graceful shut-down occurred.","MessageID":"3ffff","Name":" Log Entry 132","SensorNumber":0,"SensorType":"OS Stop/Shutdown","Severity":"Ok"},{"@odata.id":"/redfish/v1/Managers/iDRAC.Embedded.1/Logs/Sel/131","@odata.type":"#LogEntry.1.0.0.LogEntry","Created":"2016-05-28T18:20:04-05:00","Description":" Log Entry 131","EntryCode":"","EntryType":"SEL","Id":"131","Links":{"OriginOfCondition":null},"Message":"OEM software event.","MessageID":"500","Name":" Log Entry 131","SensorNumber":255,"SensorType":"Unknown","Severity":"Ok"},{"@odata.id":"/redfish/v1/Managers/iDRAC.Embedded.1/Logs/Sel/130","@odata.type":"#LogEntry.1.0.0.LogEntry","Created":"2016-05-28T18:20:04-05:00","Description":" Log Entry 130","EntryCode":"","EntryType":"SEL","Id":"130","Links":{"OriginOfCondition":null},"Message":"An OS graceful shut-down occurred.","MessageID":"3ffff","Name":" Log Entry 130","SensorNumber":0,"SensorType":"OS Stop/Shutdown","Severity":"Ok"},{"@odata.id":"/redfish/v1/Managers/iDRAC.Embedded.1/Logs/Sel/129","@odata.type":"#LogEntry.1.0.0.LogEntry","Created":"2016-05-28T18:08:39-05:00","Description":" Log Entry 129","EntryCode":"","EntryType":"SEL","Id":"129","Links":{"OriginOfCondition":null},"Message":"OEM software event.","MessageID":"500","Name":" Log Entry 129","SensorNumber":255,"SensorType":"Unknown","Severity":"Ok"},{"@odata.id":"/redfish/v1/Managers/iDRAC.Embedded.1/Logs/Sel/128","@odata.type":"#LogEntry.1.0.0.LogEntry","Created":"2016-05-28T18:08:39-05:00","Description":" Log Entry 128","EntryCode":"","EntryType":"SEL","Id":"128","Links":{"OriginOfCondition":null},"Message":"An OS graceful shut-down occurred.","MessageID":"3ffff","Name":" Log Entry 128","SensorNumber":0,"SensorType":"OS Stop/Shutdown","Severity":"Ok"},{"@odata.id":"/redfish/v1/Managers/iDRAC.Embedded.1/Logs/Sel/127","@odata.type":"#LogEntry.1.0.0.LogEntry","Created":"2016-05-28T14:40:49-05:00","Description":" Log Entry 127","EntryCode":"","EntryType":"SEL","Id":"127","Links":{"OriginOfCondition":null},"Message":"The input power for power supply 2 has been restored.","MessageID":"3ffff","Name":" Log Entry 127","SensorNumber":99,"SensorType":"Power Supply / Converter","Severity":"Ok"},{"@odata.id":"/redfish/v1/Managers/iDRAC.Embedded.1/Logs/Sel/126","@odata.type":"#LogEntry.1.0.0.LogEntry","Created":"2016-05-28T14:40:34-05:00","Description":" Log Entry 126","EntryCode":"","EntryType":"SEL","Id":"126","Links":{"OriginOfCondition":null},"Message":"Power supply 2 is correctly configured.","MessageID":"6ffff","Name":" Log Entry 126","SensorNumber":99,"SensorType":"Power Supply / Converter","Severity":"Ok"},{"@odata.id":"/redfish/v1/Managers/iDRAC.Embedded.1/Logs/Sel/125","@odata.type":"#LogEntry.1.0.0.LogEntry","Created":"2016-05-28T14:40:14-05:00","Description":" Log Entry 125","EntryCode":"","EntryType":"SEL","Id":"125","Links":{"OriginOfCondition":null},"Message":"The power input for power supply 2 is lost.","MessageID":"3ffff","Name":" Log Entry 125","SensorNumber":99,"SensorType":"Power Supply / Converter","Severity":"Critical"},{"@odata.id":"/redfish/v1/Managers/iDRAC.Embedded.1/Logs/Sel/124","@odata.type":"#LogEntry.1.0.0.LogEntry","Created":"2016-05-28T14:36:16-05:00","Description":" Log Entry 124","EntryCode":"State Deasserted","EntryType":"SEL","Id":"124","Links":{"OriginOfCondition":null},"Message":"The system board PS2 PG Fail voltage is within range.","MessageID":"0ffff","Name":" Log Entry 124","SensorNumber":44,"SensorType":"Voltage","Severity":"Ok"},{"@odata.id":"/redfish/v1/Managers/iDRAC.Embedded.1/Logs/Sel/123","@odata.type":"#LogEntry.1.0.0.LogEntry","Created":"2016-05-28T14:36:14-05:00","Description":" Log Entry 123","EntryCode":"","EntryType":"SEL","Id":"123","Links":{"OriginOfCondition":null},"Message":"Power supply 2 is incorrectly configured.","MessageID":"6ffff","Name":" Log Entry 123","SensorNumber":99,"SensorType":"Power Supply / Converter","Severity":"Critical"},{"@odata.id":"/redfish/v1/Managers/iDRAC.Embedded.1/Logs/Sel/122","@odata.type":"#LogEntry.1.0.0.LogEntry","Created":"2016-05-28T14:36:11-05:00","Description":" Log Entry 122","EntryCode":"State Asserted","EntryType":"SEL","Id":"122","Links":{"OriginOfCondition":null},"Message":"The system board PS2 PG Fail voltage is outside of range.","MessageID":"1ffff","Name":" Log Entry 122","SensorNumber":44,"SensorType":"Voltage","Severity":"Critical"},{"@odata.id":"/redfish/v1/Managers/iDRAC.Embedded.1/Logs/Sel/121","@odata.type":"#LogEntry.1.0.0.LogEntry","Created":"2016-05-28T14:34:27-05:00","Description":" Log Entry 121","EntryCode":"","EntryType":"SEL","Id":"121","Links":{"OriginOfCondition":null},"Message":"Power supply 1 is incorrectly configured.","MessageID":"6ffff","Name":" Log Entry 121","SensorNumber":98,"SensorType":"Power Supply / Converter","Severity":"Critical"},{"@odata.id":"/redfish/v1/Managers/iDRAC.Embedded.1/Logs/Sel/120","@odata.type":"#LogEntry.1.0.0.LogEntry","Created":"2016-05-28T14:34:25-05:00","Description":" Log Entry 120","EntryCode":"State Deasserted","EntryType":"SEL","Id":"120","Links":{"OriginOfCondition":null},"Message":"The system board PS1 PG Fail voltage is within range.","MessageID":"0ffff","Name":" Log Entry 120","SensorNumber":45,"SensorType":"Voltage","Severity":"Ok"},{"@odata.id":"/redfish/v1/Managers/iDRAC.Embedded.1/Logs/Sel/119","@odata.type":"#LogEntry.1.0.0.LogEntry","Created":"2016-05-28T14:34:20-05:00","Description":" Log Entry 119","EntryCode":"State Asserted","EntryType":"SEL","Id":"119","Links":{"OriginOfCondition":null},"Message":"The system board PS1 PG Fail voltage is outside of range.","MessageID":"1ffff","Name":" Log Entry 119","SensorNumber":45,"SensorType":"Voltage","Severity":"Critical"},{"@odata.id":"/redfish/v1/Managers/iDRAC.Embedded.1/Logs/Sel/118","@odata.type":"#LogEntry.1.0.0.LogEntry","Created":"2016-05-28T14:34:12-05:00","Description":" Log Entry 118","EntryCode":"","EntryType":"SEL","Id":"118","Links":{"OriginOfCondition":null},"Message":"Power supply 1 is correctly configured.","MessageID":"6ffff","Name":" Log Entry 118","SensorNumber":98,"SensorType":"Power Supply / Converter","Severity":"Ok"},{"@odata.id":"/redfish/v1/Managers/iDRAC.Embedded.1/Logs/Sel/117","@odata.type":"#LogEntry.1.0.0.LogEntry","Created":"2016-05-28T14:33:57-05:00","Description":" Log Entry 117","EntryCode":"","EntryType":"SEL","Id":"117","Links":{"OriginOfCondition":null},"Message":"The power input for power supply 1 is lost.","MessageID":"3ffff","Name":" Log Entry 117","SensorNumber":98,"SensorType":"Power Supply / Converter","Severity":"Critical"},{"@odata.id":"/redfish/v1/Managers/iDRAC.Embedded.1/Logs/Sel/116","@odata.type":"#LogEntry.1.0.0.LogEntry","Created":"2016-05-28T14:32:12-05:00","Description":" Log Entry 116","EntryCode":"","EntryType":"SEL","Id":"116","Links":{"OriginOfCondition":null},"Message":"Power supply 1 is incorrectly configured.","MessageID":"6ffff","Name":" Log Entry 116","SensorNumber":98,"SensorType":"Power Supply / Converter","Severity":"Critical"},{"@odata.id":"/redfish/v1/Managers/iDRAC.Embedded.1/Logs/Sel/115","@odata.type":"#LogEntry.1.0.0.LogEntry","Created":"2016-05-28T14:32:10-05:00","Description":" Log Entry 115","EntryCode":"State Deasserted","EntryType":"SEL","Id":"115","Links":{"OriginOfCondition":null},"Message":"The system board PS1 PG Fail voltage is within range.","MessageID":"0ffff","Name":" Log Entry 115","SensorNumber":45,"SensorType":"Voltage","Severity":"Ok"},{"@odata.id":"/redfish/v1/Managers/iDRAC.Embedded.1/Logs/Sel/114","@odata.type":"#LogEntry.1.0.0.LogEntry","Created":"2016-05-28T14:32:05-05:00","Description":" Log Entry 114","EntryCode":"State Asserted","EntryType":"SEL","Id":"114","Links":{"OriginOfCondition":null},"Message":"The system board PS1 PG Fail voltage is outside of range.","MessageID":"1ffff","Name":" Log Entry 114","SensorNumber":45,"SensorType":"Voltage","Severity":"Critical"},{"@odata.id":"/redfish/v1/Managers/iDRAC.Embedded.1/Logs/Sel/113","@odata.type":"#LogEntry.1.0.0.LogEntry","Created":"2016-05-28T14:32:02-05:00","Description":" Log Entry 113","EntryCode":"","EntryType":"SEL","Id":"113","Links":{"OriginOfCondition":null},"Message":"The input power for power supply 1 has been restored.","MessageID":"3ffff","Name":" Log Entry 113","SensorNumber":98,"SensorType":"Power Supply / Converter","Severity":"Ok"},{"@odata.id":"/redfish/v1/Managers/iDRAC.Embedded.1/Logs/Sel/112","@odata.type":"#LogEntry.1.0.0.LogEntry","Created":"2016-05-28T14:15:57-05:00","Description":" Log Entry 112","EntryCode":"","EntryType":"SEL","Id":"112","Links":{"OriginOfCondition":null},"Message":"OEM software event.","MessageID":"500","Name":" Log Entry 112","SensorNumber":255,"SensorType":"Unknown","Severity":"Ok"},{"@odata.id":"/redfish/v1/Managers/iDRAC.Embedded.1/Logs/Sel/111","@odata.type":"#LogEntry.1.0.0.LogEntry","Created":"2016-05-28T14:15:57-05:00","Description":" Log Entry 111","EntryCode":"","EntryType":"SEL","Id":"111","Links":{"OriginOfCondition":null},"Message":"An OS graceful shut-down occurred.","MessageID":"3ffff","Name":" Log Entry 111","SensorNumber":0,"SensorType":"OS Stop/Shutdown","Severity":"Ok"},{"@odata.id":"/redfish/v1/Managers/iDRAC.Embedded.1/Logs/Sel/110","@odata.type":"#LogEntry.1.0.0.LogEntry","Created":"2016-05-28T14:05:14-05:00","Description":" Log Entry 110","EntryCode":"","EntryType":"SEL","Id":"110","Links":{"OriginOfCondition":null},"Message":"The power input for power supply 1 is lost.","MessageID":"3ffff","Name":" Log Entry 110","SensorNumber":98,"SensorType":"Power Supply / Converter","Severity":"Critical"},{"@odata.id":"/redfish/v1/Managers/iDRAC.Embedded.1/Logs/Sel/109","@odata.type":"#LogEntry.1.0.0.LogEntry","Created":"2016-05-28T14:02:15-05:00","Description":" Log Entry 109","EntryCode":"","EntryType":"SEL","Id":"109","Links":{"OriginOfCondition":null},"Message":"OEM software event.","MessageID":"500","Name":" Log Entry 109","SensorNumber":255,"SensorType":"Unknown","Severity":"Ok"},{"@odata.id":"/redfish/v1/Managers/iDRAC.Embedded.1/Logs/Sel/108","@odata.type":"#LogEntry.1.0.0.LogEntry","Created":"2016-05-28T14:02:15-05:00","Description":" Log Entry 108","EntryCode":"","EntryType":"SEL","Id":"108","Links":{"OriginOfCondition":null},"Message":"An OS graceful shut-down occurred.","MessageID":"3ffff","Name":" Log Entry 108","SensorNumber":0,"SensorType":"OS Stop/Shutdown","Severity":"Ok"},{"@odata.id":"/redfish/v1/Managers/iDRAC.Embedded.1/Logs/Sel/107","@odata.type":"#LogEntry.1.0.0.LogEntry","Created":"2016-05-24T21:26:03-05:00","Description":" Log Entry 107","EntryCode":"","EntryType":"SEL","Id":"107","Links":{"OriginOfCondition":null},"Message":"The power input for power supply 1 is lost.","MessageID":"3ffff","Name":" Log Entry 107","SensorNumber":98,"SensorType":"Power Supply / Converter","Severity":"Critical"}],"Name":"Log Entry Collection"}
